,item_A,item_B,freqAB,supportAB,freqA,supportA,freqB,supportB,confidenceAtoB,confidenceBtoA,lift
364,HynekMlnarik-Dev,Yariv-QE,1,0.27472527472527475,3,0.8241758241758242,2,0.5494505494505495,0.3333333333333333,0.5,0.6066666666666666
293,HynekMlnarik-Dev,AlexanderChuzhoy-QE,1,0.27472527472527475,3,0.8241758241758242,2,0.5494505494505495,0.3333333333333333,0.5,0.6066666666666666
502,MarianKrcmarik-QE,7-week,1,0.27472527472527475,1,0.27472527472527475,9,2.4725274725274726,1.0,0.11111111111111112,0.40444444444444444
203,StevenHillman-Dev,AsafHirshberg-QE,1,0.27472527472527475,5,1.3736263736263736,2,0.5494505494505495,0.2,0.5,0.364
174,StevenHillman-Dev,LeonidNatapov-QE,1,0.27472527472527475,5,1.3736263736263736,2,0.5494505494505495,0.2,0.5,0.364
225,YoniShafrir-Dev,9-week,1,0.27472527472527475,1,0.27472527472527475,16,4.395604395604396,1.0,0.0625,0.22749999999999998
2,BobKukura-Dev,9-week,1,0.27472527472527475,1,0.27472527472527475,16,4.395604395604396,1.0,0.0625,0.22749999999999998
389,MiguelAngelAjo-Dev,YuriObshansky-QE,1,0.27472527472527475,23,6.318681318681318,1,0.27472527472527475,0.04347826086956522,1.0,0.1582608695652174
17,TerryWilson-Dev,RamiVaknin-QE,3,0.8241758241758242,24,6.593406593406594,3,0.8241758241758242,0.125,1.0,0.15166666666666664
122,MikeKolesnik-Dev,RoeyDekel-QE,1,0.27472527472527475,2,0.5494505494505495,12,3.296703296703297,0.5,0.08333333333333333,0.15166666666666664
262,lpeer-Dev,MariusCornea-QE,1,0.27472527472527475,8,2.197802197802198,3,0.8241758241758242,0.125,0.3333333333333333,0.15166666666666664
136,IanWienand-Dev,2-week,1,0.27472527472527475,1,0.27472527472527475,25,6.868131868131869,1.0,0.04,0.14559999999999998
124,MikeKolesnik-Dev,8-week,1,0.27472527472527475,2,0.5494505494505495,13,3.571428571428571,0.5,0.07692307692307694,0.14
522,CarlosGoncalves-Dev,ArieBregman-QE,2,0.5494505494505495,3,0.8241758241758242,18,4.945054945054945,0.6666666666666666,0.11111111111111112,0.1348148148148148
530,ArieBregman-Dev,7-week,1,0.27472527472527475,3,0.8241758241758242,9,2.4725274725274726,0.3333333333333333,0.11111111111111112,0.1348148148148148
593,SlawekKaplonski-Dev,FedericoRessi-QE,1,0.27472527472527475,15,4.1208791208791204,2,0.5494505494505495,0.06666666666666668,0.5,0.12133333333333335
568,Yariv-QE,9-week,1,0.27472527472527475,2,0.5494505494505495,16,4.395604395604396,0.5,0.0625,0.11374999999999999
566,BrianHaley-Dev,Yariv-QE,1,0.27472527472527475,16,4.395604395604396,2,0.5494505494505495,0.0625,0.5,0.11374999999999999
303,HaimDaniel-Dev,10-week,1,0.27472527472527475,2,0.5494505494505495,18,4.945054945054945,0.5,0.05555555555555556,0.10111111111111111
559,SaravananKR-Dev,RoeeAgiman-QE,1,0.27472527472527475,1,0.27472527472527475,38,10.43956043956044,1.0,0.026315789473684213,0.09578947368421052
304,ArieBregman-Dev,ItzikBrown-QE,1,0.27472527472527475,3,0.8241758241758242,13,3.571428571428571,0.3333333333333333,0.07692307692307694,0.09333333333333334
357,HynekMlnarik-Dev,11-week,1,0.27472527472527475,3,0.8241758241758242,13,3.571428571428571,0.3333333333333333,0.07692307692307694,0.09333333333333334
404,JonSchlueter-Dev,8-week,1,0.27472527472527475,3,0.8241758241758242,13,3.571428571428571,0.3333333333333333,0.07692307692307694,0.09333333333333334
457,ArieBregman-Dev,8-week,1,0.27472527472527475,3,0.8241758241758242,13,3.571428571428571,0.3333333333333333,0.07692307692307694,0.09333333333333334
0,BobKukura-Dev,OferBlaut-QE,1,0.27472527472527475,1,0.27472527472527475,39,10.714285714285714,1.0,0.025641025641025644,0.09333333333333334
134,IanWienand-Dev,OferBlaut-QE,1,0.27472527472527475,1,0.27472527472527475,39,10.714285714285714,1.0,0.025641025641025644,0.09333333333333334
101,AlanPevec-Dev,OferBlaut-QE,1,0.27472527472527475,1,0.27472527472527475,39,10.714285714285714,1.0,0.025641025641025644,0.09333333333333334
223,YoniShafrir-Dev,OferBlaut-QE,1,0.27472527472527475,1,0.27472527472527475,39,10.714285714285714,1.0,0.025641025641025644,0.09333333333333334
189,StevenHillman-Dev,NirMagnezi-QE,2,0.5494505494505495,5,1.3736263736263736,16,4.395604395604396,0.4,0.125,0.091
345,BernardCafarelli-Dev,7-week,1,0.27472527472527475,5,1.3736263736263736,9,2.4725274725274726,0.2,0.11111111111111112,0.0808888888888889
68,AssafMuller-Dev,IharHrachyshka-QE,1,0.27472527472527475,45,12.362637362637363,1,0.27472527472527475,0.022222222222222223,1.0,0.08088888888888889
163,AssafMuller-Dev,PetrMatousek-QE,1,0.27472527472527475,45,12.362637362637363,1,0.27472527472527475,0.022222222222222223,1.0,0.08088888888888889
528,CarlosGoncalves-Dev,5-week,1,0.27472527472527475,3,0.8241758241758242,16,4.395604395604396,0.3333333333333333,0.0625,0.07583333333333332
532,CarlosGoncalves-Dev,9-week,1,0.27472527472527475,3,0.8241758241758242,16,4.395604395604396,0.3333333333333333,0.0625,0.07583333333333332
464,Yariv-Dev,2-week-on-qa,1,0.27472527472527475,1,0.27472527472527475,53,14.560439560439562,1.0,0.018867924528301886,0.06867924528301886
137,IanWienand-Dev,2-week-on-qa,1,0.27472527472527475,1,0.27472527472527475,53,14.560439560439562,1.0,0.018867924528301886,0.06867924528301886
562,SaravananKR-Dev,2-week-on-qa,1,0.27472527472527475,1,0.27472527472527475,53,14.560439560439562,1.0,0.018867924528301886,0.06867924528301886
524,CarlosGoncalves-Dev,10-week,1,0.27472527472527475,3,0.8241758241758242,18,4.945054945054945,0.3333333333333333,0.05555555555555556,0.0674074074074074
398,JonSchlueter-Dev,AlexanderStafeyev-QE,2,0.5494505494505495,3,0.8241758241758242,39,10.714285714285714,0.6666666666666666,0.05128205128205129,0.062222222222222234
327,NirMagnezi-Dev,AlexanderChuzhoy-QE,1,0.27472527472527475,30,8.241758241758241,2,0.5494505494505495,0.03333333333333334,0.5,0.060666666666666674
442,BernardCafarelli-Dev,8-week,1,0.27472527472527475,5,1.3736263736263736,13,3.571428571428571,0.2,0.07692307692307694,0.05600000000000001
185,JohnSchwarz-Dev,11-week,1,0.27472527472527475,5,1.3736263736263736,13,3.571428571428571,0.2,0.07692307692307694,0.05600000000000001
46,RamiVaknin-QE,3-week,2,0.5494505494505495,3,0.8241758241758242,44,12.087912087912088,0.6666666666666666,0.04545454545454546,0.05515151515151515
554,SlawekKaplonski-Dev,7-week,2,0.5494505494505495,15,4.1208791208791204,9,2.4725274725274726,0.13333333333333336,0.22222222222222224,0.05392592592592593
571,SlawekKaplonski-Dev,RoeeAgiman-QE,8,2.197802197802198,15,4.1208791208791204,38,10.43956043956044,0.5333333333333334,0.2105263157894737,0.051087719298245626
538,JakubLibosvar-Dev,FedericoRessi-QE,1,0.27472527472527475,36,9.89010989010989,2,0.5494505494505495,0.02777777777777778,0.5,0.050555555555555555
242,JakubLibosvar-Dev,AsafHirshberg-QE,1,0.27472527472527475,36,9.89010989010989,2,0.5494505494505495,0.02777777777777778,0.5,0.050555555555555555
275,BrentEagles-Dev,EranKuris-QE,3,0.8241758241758242,6,1.6483516483516485,36,9.89010989010989,0.5,0.08333333333333334,0.050555555555555555
26,TerryWilson-Dev,RoeyDekel-QE,4,1.098901098901099,24,6.593406593406594,12,3.296703296703297,0.16666666666666666,0.3333333333333333,0.05055555555555555
227,BrentEagles-Dev,RoeyDekel-QE,1,0.27472527472527475,6,1.6483516483516485,12,3.296703296703297,0.16666666666666666,0.08333333333333333,0.05055555555555555
207,MiguelAngelAjo-Dev,ItzikBrown-QE,4,1.098901098901099,23,6.318681318681318,13,3.571428571428571,0.1739130434782609,0.30769230769230776,0.04869565217391305
430,GenadiC-Dev,AlexanderStafeyev-QE,1,0.27472527472527475,2,0.5494505494505495,39,10.714285714285714,0.5,0.025641025641025644,0.04666666666666667
270,MikeKolesnik-Dev,OferBlaut-QE,1,0.27472527472527475,2,0.5494505494505495,39,10.714285714285714,0.5,0.025641025641025644,0.04666666666666667
500,IharHrachyshka-Dev,MarianKrcmarik-QE,1,0.27472527472527475,78,21.428571428571427,1,0.27472527472527475,0.012820512820512822,1.0,0.04666666666666667
105,lpeer-Dev,OferBlaut-QE,4,1.098901098901099,8,2.197802197802198,39,10.714285714285714,0.5,0.10256410256410257,0.04666666666666667
93,RHOSMaint-Dev,OferBlaut-QE,1,0.27472527472527475,2,0.5494505494505495,39,10.714285714285714,0.5,0.025641025641025644,0.04666666666666667
298,HaimDaniel-Dev,AlexanderStafeyev-QE,1,0.27472527472527475,2,0.5494505494505495,39,10.714285714285714,0.5,0.025641025641025644,0.04666666666666667
183,JohnSchwarz-Dev,NirMagnezi-QE,1,0.27472527472527475,5,1.3736263736263736,16,4.395604395604396,0.2,0.0625,0.0455
201,StevenHillman-Dev,5-week,1,0.27472527472527475,5,1.3736263736263736,16,4.395604395604396,0.2,0.0625,0.0455
383,MariusCornea-QE,4-week,1,0.27472527472527475,3,0.8241758241758242,27,7.417582417582418,0.3333333333333333,0.03703703703703704,0.04493827160493827
306,ArieBregman-Dev,4-week,1,0.27472527472527475,3,0.8241758241758242,27,7.417582417582418,0.3333333333333333,0.03703703703703704,0.04493827160493827
425,DanielAlvarezSanchez-Dev,GenadiC-QE,3,0.8241758241758242,14,3.8461538461538463,18,4.945054945054945,0.2142857142857143,0.16666666666666669,0.043333333333333335
73,IharHrachyshka-QE,1-week,1,0.27472527472527475,1,0.27472527472527475,84,23.076923076923077,1.0,0.011904761904761906,0.043333333333333335
165,PetrMatousek-QE,1-week,1,0.27472527472527475,1,0.27472527472527475,84,23.076923076923077,1.0,0.011904761904761906,0.043333333333333335
205,AsafHirshberg-QE,1-week,2,0.5494505494505495,2,0.5494505494505495,84,23.076923076923077,1.0,0.02380952380952381,0.043333333333333335
550,TimRozet-Dev,1-week,1,0.27472527472527475,1,0.27472527472527475,84,23.076923076923077,1.0,0.011904761904761906,0.043333333333333335
391,YuriObshansky-QE,12-week,1,0.27472527472527475,1,0.27472527472527475,87,23.9010989010989,1.0,0.01149425287356322,0.04183908045977011
103,AlanPevec-Dev,12-week,1,0.27472527472527475,1,0.27472527472527475,87,23.9010989010989,1.0,0.01149425287356322,0.04183908045977011
463,Yariv-Dev,12-week,1,0.27472527472527475,1,0.27472527472527475,87,23.9010989010989,1.0,0.01149425287356322,0.04183908045977011
561,SaravananKR-Dev,12-week,1,0.27472527472527475,1,0.27472527472527475,87,23.9010989010989,1.0,0.01149425287356322,0.04183908045977011
582,RoeeAgiman-Dev,12-week,1,0.27472527472527475,1,0.27472527472527475,87,23.9010989010989,1.0,0.01149425287356322,0.04183908045977011
388,SridharGaddam-Dev,3-week,1,0.27472527472527475,2,0.5494505494505495,44,12.087912087912088,0.5,0.02272727272727273,0.041363636363636366
520,BernardCafarelli-Dev,10-week,1,0.27472527472527475,5,1.3736263736263736,18,4.945054945054945,0.2,0.05555555555555556,0.04044444444444445
343,BernardCafarelli-Dev,GenadiC-QE,1,0.27472527472527475,5,1.3736263736263736,18,4.945054945054945,0.2,0.05555555555555556,0.04044444444444445
382,NirMagnezi-Dev,MariusCornea-QE,1,0.27472527472527475,30,8.241758241758241,3,0.8241758241758242,0.03333333333333334,0.3333333333333333,0.04044444444444445
519,BernardCafarelli-Dev,ArieBregman-QE,1,0.27472527472527475,5,1.3736263736263736,18,4.945054945054945,0.2,0.05555555555555556,0.04044444444444445
577,SlawekKaplonski-Dev,6-week,2,0.5494505494505495,15,4.1208791208791204,12,3.296703296703297,0.13333333333333336,0.16666666666666666,0.04044444444444445
426,DanielAlvarezSanchez-Dev,8-week,2,0.5494505494505495,14,3.8461538461538463,13,3.571428571428571,0.14285714285714288,0.15384615384615388,0.04000000000000001
131,MiguelAngelAjo-Dev,NirMagnezi-QE,4,1.098901098901099,23,6.318681318681318,16,4.395604395604396,0.1739130434782609,0.25,0.03956521739130435
231,lpeer-Dev,RoeyDekel-QE,1,0.27472527472527475,8,2.197802197802198,12,3.296703296703297,0.125,0.08333333333333333,0.03791666666666666
237,SridharGaddam-Dev,ToniFreger-QE,2,0.5494505494505495,2,0.5494505494505495,102,28.021978021978022,1.0,0.019607843137254905,0.035686274509803925
580,RoeeAgiman-Dev,ToniFreger-QE,1,0.27472527472527475,1,0.27472527472527475,102,28.021978021978022,1.0,0.009803921568627453,0.035686274509803925
548,TimRozet-Dev,ToniFreger-QE,1,0.27472527472527475,1,0.27472527472527475,102,28.021978021978022,1.0,0.009803921568627453,0.035686274509803925
461,Yariv-Dev,ToniFreger-QE,1,0.27472527472527475,1,0.27472527472527475,102,28.021978021978022,1.0,0.009803921568627453,0.035686274509803925
369,anilvenkata-Dev,GenadiC-QE,4,1.098901098901099,23,6.318681318681318,18,4.945054945054945,0.1739130434782609,0.22222222222222224,0.03516908212560387
113,lpeer-Dev,YairFried-QE,1,0.27472527472527475,8,2.197802197802198,13,3.571428571428571,0.125,0.07692307692307694,0.035
291,ItzikBrown-QE,9-week,2,0.5494505494505495,13,3.571428571428571,16,4.395604395604396,0.15384615384615388,0.125,0.035
176,StevenHillman-Dev,1-week,4,1.098901098901099,5,1.3736263736263736,84,23.076923076923077,0.8,0.04761904761904762,0.03466666666666667
206,AsafHirshberg-QE,2-week-on-qa,1,0.27472527472527475,2,0.5494505494505495,53,14.560439560439562,0.5,0.018867924528301886,0.03433962264150943
521,ArieBregman-QE,10-week,3,0.8241758241758242,18,4.945054945054945,18,4.945054945054945,0.16666666666666669,0.16666666666666669,0.03370370370370371
402,JonSchlueter-Dev,EranKuris-QE,1,0.27472527472527475,3,0.8241758241758242,36,9.89010989010989,0.3333333333333333,0.02777777777777778,0.0337037037037037
277,BrentEagles-Dev,10-week,1,0.27472527472527475,6,1.6483516483516485,18,4.945054945054945,0.16666666666666666,0.05555555555555556,0.0337037037037037
434,BrentEagles-Dev,GenadiC-QE,1,0.27472527472527475,6,1.6483516483516485,18,4.945054945054945,0.16666666666666666,0.05555555555555556,0.0337037037037037
480,RoeeAgiman-QE,6-week,4,1.098901098901099,38,10.43956043956044,12,3.296703296703297,0.10526315789473685,0.3333333333333333,0.03192982456140351
455,ArieBregman-Dev,RoeeAgiman-QE,1,0.27472527472527475,3,0.8241758241758242,38,10.43956043956044,0.3333333333333333,0.026315789473684213,0.03192982456140351
527,CarlosGoncalves-Dev,AlexanderStafeyev-QE,1,0.27472527472527475,3,0.8241758241758242,39,10.714285714285714,0.3333333333333333,0.025641025641025644,0.031111111111111117
280,EranKuris-QE,8-week,4,1.098901098901099,36,9.89010989010989,13,3.571428571428571,0.11111111111111112,0.30769230769230776,0.031111111111111117
529,ArieBregman-Dev,AlexanderStafeyev-QE,1,0.27472527472527475,3,0.8241758241758242,39,10.714285714285714,0.3333333333333333,0.025641025641025644,0.031111111111111117
356,HynekMlnarik-Dev,AlexanderStafeyev-QE,1,0.27472527472527475,3,0.8241758241758242,39,10.714285714285714,0.3333333333333333,0.025641025641025644,0.031111111111111117
555,ItzikBrown-QE,7-week,1,0.27472527472527475,13,3.571428571428571,9,2.4725274725274726,0.07692307692307694,0.11111111111111112,0.031111111111111117
446,AlexanderStafeyev-QE,7-week,3,0.8241758241758242,39,10.714285714285714,9,2.4725274725274726,0.07692307692307694,0.33333333333333337,0.031111111111111114
476,BrianHaley-Dev,RoeeAgiman-QE,5,1.3736263736263736,16,4.395604395604396,38,10.43956043956044,0.3125,0.13157894736842105,0.029934210526315785
517,RoeeAgiman-QE,11-week,4,1.098901098901099,38,10.43956043956044,13,3.571428571428571,0.10526315789473685,0.30769230769230776,0.02947368421052632
5,OferBlaut-QE,9-week,5,1.3736263736263736,39,10.714285714285714,16,4.395604395604396,0.12820512820512822,0.3125,0.029166666666666667
353,DanielAlvarezSanchez-Dev,10-week,2,0.5494505494505495,14,3.8461538461538463,18,4.945054945054945,0.14285714285714288,0.11111111111111112,0.028888888888888888
355,AlexanderStafeyev-QE,11-week,4,1.098901098901099,39,10.714285714285714,13,3.571428571428571,0.10256410256410257,0.30769230769230776,0.02871794871794872
567,BrianHaley-Dev,9-week,2,0.5494505494505495,16,4.395604395604396,16,4.395604395604396,0.125,0.125,0.028437499999999998
141,lpeer-Dev,9-week,1,0.27472527472527475,8,2.197802197802198,16,4.395604395604396,0.125,0.0625,0.028437499999999998
295,HynekMlnarik-Dev,12-week,2,0.5494505494505495,3,0.8241758241758242,87,23.9010989010989,0.6666666666666666,0.02298850574712644,0.02789272030651341
30,RoeyDekel-QE,3-week,4,1.098901098901099,12,3.296703296703297,44,12.087912087912088,0.3333333333333333,0.09090909090909093,0.027575757575757576
199,StevenHillman-Dev,2-week-on-qa,2,0.5494505494505495,5,1.3736263736263736,53,14.560439560439562,0.4,0.03773584905660377,0.027471698113207543
346,BernardCafarelli-Dev,2-week-on-qa,2,0.5494505494505495,5,1.3736263736263736,53,14.560439560439562,0.4,0.03773584905660377,0.027471698113207543
119,NirMagnezi-QE,1-week,10,2.7472527472527473,16,4.395604395604396,84,23.076923076923077,0.625,0.11904761904761905,0.027083333333333334
310,JohnSchwarz-Dev,4-week,1,0.27472527472527475,5,1.3736263736263736,27,7.417582417582418,0.2,0.03703703703703704,0.026962962962962963
558,BernardCafarelli-Dev,4-week,1,0.27472527472527475,5,1.3736263736263736,27,7.417582417582418,0.2,0.03703703703703704,0.026962962962962963
493,anilvenkata-Dev,ArieBregman-QE,3,0.8241758241758242,23,6.318681318681318,18,4.945054945054945,0.13043478260869568,0.16666666666666669,0.026376811594202902
97,MiguelAngelAjo-Dev,2-week,4,1.098901098901099,23,6.318681318681318,25,6.868131868131869,0.1739130434782609,0.16,0.025321739130434784
373,GenadiC-QE,9-week,2,0.5494505494505495,18,4.945054945054945,16,4.395604395604396,0.11111111111111112,0.125,0.025277777777777777
533,ArieBregman-QE,9-week,2,0.5494505494505495,18,4.945054945054945,16,4.395604395604396,0.11111111111111112,0.125,0.025277777777777777
41,JakubLibosvar-Dev,RoeyDekel-QE,3,0.8241758241758242,36,9.89010989010989,12,3.296703296703297,0.08333333333333334,0.25,0.025277777777777777
251,NirMagnezi-Dev,AlexanderStafeyev-QE,8,2.197802197802198,30,8.241758241758241,39,10.714285714285714,0.2666666666666667,0.20512820512820515,0.024888888888888894
204,AsafHirshberg-QE,urgent-Severity,2,0.5494505494505495,2,0.5494505494505495,148,40.65934065934066,1.0,0.013513513513513516,0.024594594594594593
178,LeonidNatapov-QE,urgent-Severity,2,0.5494505494505495,2,0.5494505494505495,148,40.65934065934066,1.0,0.013513513513513516,0.024594594594594593
501,MarianKrcmarik-QE,urgent-Severity,1,0.27472527472527475,1,0.27472527472527475,148,40.65934065934066,1.0,0.006756756756756758,0.024594594594594593
1,BobKukura-Dev,urgent-Severity,1,0.27472527472527475,1,0.27472527472527475,148,40.65934065934066,1.0,0.006756756756756758,0.024594594594594593
123,MikeKolesnik-Dev,urgent-Severity,2,0.5494505494505495,2,0.5494505494505495,148,40.65934065934066,1.0,0.013513513513513516,0.024594594594594593
224,YoniShafrir-Dev,urgent-Severity,1,0.27472527472527475,1,0.27472527472527475,148,40.65934065934066,1.0,0.006756756756756758,0.024594594594594593
549,TimRozet-Dev,urgent-Severity,1,0.27472527472527475,1,0.27472527472527475,148,40.65934065934066,1.0,0.006756756756756758,0.024594594594594593
76,MiguelAngelAjo-Dev,OferBlaut-QE,6,1.6483516483516485,23,6.318681318681318,39,10.714285714285714,0.26086956521739135,0.15384615384615388,0.02434782608695653
108,MiguelAngelAjo-Dev,YairFried-QE,2,0.5494505494505495,23,6.318681318681318,13,3.571428571428571,0.08695652173913045,0.15384615384615388,0.024347826086956525
397,BrentEagles-Dev,2-week,1,0.27472527472527475,6,1.6483516483516485,25,6.868131868131869,0.16666666666666666,0.04,0.024266666666666666
380,AlexanderStafeyev-QE,6-week,3,0.8241758241758242,39,10.714285714285714,12,3.296703296703297,0.07692307692307694,0.25,0.023333333333333338
125,RoeyDekel-QE,8-week,1,0.27472527472527475,12,3.296703296703297,13,3.571428571428571,0.08333333333333333,0.07692307692307694,0.023333333333333334
516,TerryWilson-Dev,11-week,2,0.5494505494505495,24,6.593406593406594,13,3.571428571428571,0.08333333333333333,0.15384615384615388,0.023333333333333334
244,IharHrachyshka-Dev,LeonidNatapov-QE,1,0.27472527472527475,78,21.428571428571427,2,0.5494505494505495,0.012820512820512822,0.5,0.023333333333333334
110,YairFried-QE,6-week,1,0.27472527472527475,13,3.571428571428571,12,3.296703296703297,0.07692307692307694,0.08333333333333333,0.023333333333333334
63,TerryWilson-Dev,YairFried-QE,2,0.5494505494505495,24,6.593406593406594,13,3.571428571428571,0.08333333333333333,0.15384615384615388,0.023333333333333334
454,AlexanderStafeyev-QE,5-week,4,1.098901098901099,39,10.714285714285714,16,4.395604395604396,0.10256410256410257,0.25,0.023333333333333334
22,RamiVaknin-QE,2-week-on-qa,1,0.27472527472527475,3,0.8241758241758242,53,14.560439560439562,0.3333333333333333,0.018867924528301886,0.02289308176100629
469,ArieBregman-QE,7-week,1,0.27472527472527475,18,4.945054945054945,9,2.4725274725274726,0.05555555555555556,0.11111111111111112,0.022469135802469137
235,EranKuris-QE,10-week,4,1.098901098901099,36,9.89010989010989,18,4.945054945054945,0.11111111111111112,0.22222222222222224,0.022469135802469137
347,GenadiC-QE,7-week,1,0.27472527472527475,18,4.945054945054945,9,2.4725274725274726,0.05555555555555556,0.11111111111111112,0.022469135802469137
381,JakubLibosvar-Dev,10-week,4,1.098901098901099,36,9.89010989010989,18,4.945054945054945,0.11111111111111112,0.22222222222222224,0.022469135802469137
466,AssafMuller-Dev,ArieBregman-QE,5,1.3736263736263736,45,12.362637362637363,18,4.945054945054945,0.1111111111111111,0.2777777777777778,0.022469135802469134
127,YairFried-QE,2-week,2,0.5494505494505495,13,3.571428571428571,25,6.868131868131869,0.15384615384615388,0.08,0.022400000000000003
283,ItzikBrown-QE,2-week,2,0.5494505494505495,13,3.571428571428571,25,6.868131868131869,0.15384615384615388,0.08,0.022400000000000003
179,LeonidNatapov-QE,1-week,1,0.27472527472527475,2,0.5494505494505495,84,23.076923076923077,0.5,0.011904761904761906,0.021666666666666667
329,AlexanderChuzhoy-QE,1-week,1,0.27472527472527475,2,0.5494505494505495,84,23.076923076923077,0.5,0.011904761904761906,0.021666666666666667
271,MikeKolesnik-Dev,1-week,1,0.27472527472527475,2,0.5494505494505495,84,23.076923076923077,0.5,0.011904761904761906,0.021666666666666667
95,RHOSMaint-Dev,1-week,1,0.27472527472527475,2,0.5494505494505495,84,23.076923076923077,0.5,0.011904761904761906,0.021666666666666667
484,GenadiC-Dev,1-week,1,0.27472527472527475,2,0.5494505494505495,84,23.076923076923077,0.5,0.011904761904761906,0.021666666666666667
596,FedericoRessi-QE,1-week,1,0.27472527472527475,2,0.5494505494505495,84,23.076923076923077,0.5,0.011904761904761906,0.021666666666666667
473,DanielAlvarezSanchez-Dev,6-week,1,0.27472527472527475,14,3.8461538461538463,12,3.296703296703297,0.07142857142857144,0.08333333333333333,0.021666666666666664
84,IharHrachyshka-Dev,YairFried-QE,6,1.6483516483516485,78,21.428571428571427,13,3.571428571428571,0.07692307692307694,0.4615384615384616,0.02153846153846154
192,YairFried-QE,8-week,1,0.27472527472527475,13,3.571428571428571,13,3.571428571428571,0.07692307692307694,0.07692307692307694,0.02153846153846154
535,RoeeAgiman-QE,7-week,2,0.5494505494505495,38,10.43956043956044,9,2.4725274725274726,0.052631578947368425,0.22222222222222224,0.02128654970760234
297,AlexanderChuzhoy-QE,12-week,1,0.27472527472527475,2,0.5494505494505495,87,23.9010989010989,0.5,0.01149425287356322,0.020919540229885056
300,HaimDaniel-Dev,12-week,1,0.27472527472527475,2,0.5494505494505495,87,23.9010989010989,0.5,0.01149425287356322,0.020919540229885056
540,FedericoRessi-QE,12-week,1,0.27472527472527475,2,0.5494505494505495,87,23.9010989010989,0.5,0.01149425287356322,0.020919540229885056
107,lpeer-Dev,12-week,4,1.098901098901099,8,2.197802197802198,87,23.9010989010989,0.5,0.04597701149425288,0.020919540229885056
366,Yariv-QE,12-week,1,0.27472527472527475,2,0.5494505494505495,87,23.9010989010989,0.5,0.01149425287356322,0.020919540229885056
239,SridharGaddam-Dev,12-week,1,0.27472527472527475,2,0.5494505494505495,87,23.9010989010989,0.5,0.01149425287356322,0.020919540229885056
432,GenadiC-Dev,12-week,1,0.27472527472527475,2,0.5494505494505495,87,23.9010989010989,0.5,0.01149425287356322,0.020919540229885056
245,LeonidNatapov-QE,12-week,1,0.27472527472527475,2,0.5494505494505495,87,23.9010989010989,0.5,0.01149425287356322,0.020919540229885056
565,RHOSMaint-Dev,12-week,1,0.27472527472527475,2,0.5494505494505495,87,23.9010989010989,0.5,0.01149425287356322,0.020919540229885056
86,IharHrachyshka-Dev,4-week,12,3.296703296703297,78,21.428571428571427,27,7.417582417582418,0.15384615384615388,0.4444444444444445,0.020740740740740744
87,YairFried-QE,4-week,2,0.5494505494505495,13,3.571428571428571,27,7.417582417582418,0.15384615384615388,0.07407407407407408,0.020740740740740744
233,ItzikBrown-QE,4-week,2,0.5494505494505495,13,3.571428571428571,27,7.417582417582418,0.15384615384615388,0.07407407407407408,0.020740740740740744
28,TerryWilson-Dev,3-week,6,1.6483516483516485,24,6.593406593406594,44,12.087912087912088,0.25,0.13636363636363638,0.020681818181818183
435,DanielAlvarezSanchez-Dev,RoeeAgiman-QE,3,0.8241758241758242,14,3.8461538461538463,38,10.43956043956044,0.2142857142857143,0.07894736842105264,0.020526315789473688
320,JohnSchwarz-Dev,EranKuris-QE,1,0.27472527472527475,5,1.3736263736263736,36,9.89010989010989,0.2,0.02777777777777778,0.020222222222222225
220,AssafMuller-Dev,9-week,4,1.098901098901099,45,12.362637362637363,16,4.395604395604396,0.08888888888888889,0.25,0.02022222222222222
260,EranKuris-QE,2-week,5,1.3736263736263736,36,9.89010989010989,25,6.868131868131869,0.1388888888888889,0.19999999999999998,0.020222222222222218
510,BrianHaley-Dev,ToniFreger-QE,9,2.4725274725274726,16,4.395604395604396,102,28.021978021978022,0.5625,0.08823529411764706,0.020073529411764705
440,DanielAlvarezSanchez-Dev,11-week,1,0.27472527472527475,14,3.8461538461538463,13,3.571428571428571,0.07142857142857144,0.07692307692307694,0.020000000000000004
412,DanielAlvarezSanchez-Dev,ItzikBrown-QE,1,0.27472527472527475,14,3.8461538461538463,13,3.571428571428571,0.07142857142857144,0.07692307692307694,0.020000000000000004
453,anilvenkata-Dev,5-week,2,0.5494505494505495,23,6.318681318681318,16,4.395604395604396,0.08695652173913045,0.125,0.019782608695652175
184,JohnSchwarz-Dev,urgent-Severity,4,1.098901098901099,5,1.3736263736263736,148,40.65934065934066,0.8,0.027027027027027032,0.01967567567567568
10,TerryWilson-Dev,OferBlaut-QE,5,1.3736263736263736,24,6.593406593406594,39,10.714285714285714,0.20833333333333331,0.12820512820512822,0.019444444444444445
284,NirMagnezi-Dev,2-week,4,1.098901098901099,30,8.241758241758241,25,6.868131868131869,0.13333333333333336,0.16,0.019413333333333335
579,SlawekKaplonski-Dev,2-week,2,0.5494505494505495,15,4.1208791208791204,25,6.868131868131869,0.13333333333333336,0.08,0.019413333333333335
348,GenadiC-QE,2-week-on-qa,5,1.3736263736263736,18,4.945054945054945,53,14.560439560439562,0.2777777777777778,0.09433962264150943,0.019077568134171906
417,anilvenkata-Dev,2-week,3,0.8241758241758242,23,6.318681318681318,25,6.868131868131869,0.13043478260869568,0.12,0.018991304347826088
120,JakubLibosvar-Dev,NirMagnezi-QE,3,0.8241758241758242,36,9.89010989010989,16,4.395604395604396,0.08333333333333334,0.1875,0.018958333333333334
35,TerryWilson-Dev,5-week,2,0.5494505494505495,24,6.593406593406594,16,4.395604395604396,0.08333333333333333,0.125,0.01895833333333333
36,RoeyDekel-QE,5-week,1,0.27472527472527475,12,3.296703296703297,16,4.395604395604396,0.08333333333333333,0.0625,0.01895833333333333
478,BrianHaley-Dev,6-week,1,0.27472527472527475,16,4.395604395604396,12,3.296703296703297,0.0625,0.08333333333333333,0.01895833333333333
78,MiguelAngelAjo-Dev,1-week,10,2.7472527472527473,23,6.318681318681318,84,23.076923076923077,0.4347826086956522,0.11904761904761905,0.01884057971014493
552,SlawekKaplonski-Dev,ItzikBrown-QE,1,0.27472527472527475,15,4.1208791208791204,13,3.571428571428571,0.06666666666666668,0.07692307692307694,0.01866666666666667
279,NirMagnezi-Dev,8-week,2,0.5494505494505495,30,8.241758241758241,13,3.571428571428571,0.06666666666666668,0.15384615384615388,0.01866666666666667
591,SlawekKaplonski-Dev,8-week,1,0.27472527472527475,15,4.1208791208791204,13,3.571428571428571,0.06666666666666668,0.07692307692307694,0.01866666666666667
572,SlawekKaplonski-Dev,11-week,1,0.27472527472527475,15,4.1208791208791204,13,3.571428571428571,0.06666666666666668,0.07692307692307694,0.01866666666666667
418,AssafMuller-Dev,11-week,3,0.8241758241758242,45,12.362637362637363,13,3.571428571428571,0.06666666666666667,0.2307692307692308,0.018666666666666668
362,JohnSchwarz-Dev,OferBlaut-QE,1,0.27472527472527475,5,1.3736263736263736,39,10.714285714285714,0.2,0.025641025641025644,0.018666666666666668
325,JohnSchwarz-Dev,AlexanderStafeyev-QE,1,0.27472527472527475,5,1.3736263736263736,39,10.714285714285714,0.2,0.025641025641025644,0.018666666666666668
557,BernardCafarelli-Dev,AlexanderStafeyev-QE,1,0.27472527472527475,5,1.3736263736263736,39,10.714285714285714,0.2,0.025641025641025644,0.018666666666666668
408,BrianHaley-Dev,urgent-Severity,12,3.296703296703297,16,4.395604395604396,148,40.65934065934066,0.75,0.0810810810810811,0.018445945945945945
116,RoeyDekel-QE,1-week,5,1.3736263736263736,12,3.296703296703297,84,23.076923076923077,0.41666666666666663,0.05952380952380953,0.018055555555555554
467,AssafMuller-Dev,7-week,2,0.5494505494505495,45,12.362637362637363,9,2.4725274725274726,0.044444444444444446,0.22222222222222224,0.01797530864197531
563,RHOSMaint-Dev,ToniFreger-QE,1,0.27472527472527475,2,0.5494505494505495,102,28.021978021978022,0.5,0.009803921568627453,0.017843137254901963
482,GenadiC-Dev,ToniFreger-QE,1,0.27472527472527475,2,0.5494505494505495,102,28.021978021978022,0.5,0.009803921568627453,0.017843137254901963
302,HaimDaniel-Dev,ToniFreger-QE,1,0.27472527472527475,2,0.5494505494505495,102,28.021978021978022,0.5,0.009803921568627453,0.017843137254901963
215,MiguelAngelAjo-Dev,EranKuris-QE,4,1.098901098901099,23,6.318681318681318,36,9.89010989010989,0.1739130434782609,0.11111111111111112,0.017584541062801936
376,anilvenkata-Dev,EranKuris-QE,4,1.098901098901099,23,6.318681318681318,36,9.89010989010989,0.1739130434782609,0.11111111111111112,0.017584541062801936
452,anilvenkata-Dev,7-week,1,0.27472527472527475,23,6.318681318681318,9,2.4725274725274726,0.04347826086956522,0.11111111111111112,0.017584541062801936
187,NirMagnezi-QE,11-week,1,0.27472527472527475,16,4.395604395604396,13,3.571428571428571,0.0625,0.07692307692307694,0.0175
570,BrianHaley-Dev,11-week,1,0.27472527472527475,16,4.395604395604396,13,3.571428571428571,0.0625,0.07692307692307694,0.0175
409,BrianHaley-Dev,8-week,1,0.27472527472527475,16,4.395604395604396,13,3.571428571428571,0.0625,0.07692307692307694,0.0175
322,JohnSchwarz-Dev,1-week,2,0.5494505494505495,5,1.3736263736263736,84,23.076923076923077,0.4,0.02380952380952381,0.017333333333333336
523,CarlosGoncalves-Dev,high-Severity,3,0.8241758241758242,3,0.8241758241758242,216,59.34065934065934,1.0,0.01388888888888889,0.01685185185185185
462,Yariv-Dev,high-Severity,1,0.27472527472527475,1,0.27472527472527475,216,59.34065934065934,1.0,0.00462962962962963,0.01685185185185185
560,SaravananKR-Dev,high-Severity,1,0.27472527472527475,1,0.27472527472527475,216,59.34065934065934,1.0,0.00462962962962963,0.01685185185185185
581,RoeeAgiman-Dev,high-Severity,1,0.27472527472527475,1,0.27472527472527475,216,59.34065934065934,1.0,0.00462962962962963,0.01685185185185185
337,GenadiC-QE,6-week,1,0.27472527472527475,18,4.945054945054945,12,3.296703296703297,0.05555555555555556,0.08333333333333333,0.01685185185185185
311,lpeer-Dev,4-week,1,0.27472527472527475,8,2.197802197802198,27,7.417582417582418,0.125,0.03703703703703704,0.01685185185185185
390,YuriObshansky-QE,high-Severity,1,0.27472527472527475,1,0.27472527472527475,216,59.34065934065934,1.0,0.00462962962962963,0.01685185185185185
299,HaimDaniel-Dev,high-Severity,2,0.5494505494505495,2,0.5494505494505495,216,59.34065934065934,1.0,0.00925925925925926,0.01685185185185185
296,AlexanderChuzhoy-QE,high-Severity,2,0.5494505494505495,2,0.5494505494505495,216,59.34065934065934,1.0,0.00925925925925926,0.01685185185185185
294,HynekMlnarik-Dev,high-Severity,3,0.8241758241758242,3,0.8241758241758242,216,59.34065934065934,1.0,0.01388888888888889,0.01685185185185185
365,Yariv-QE,high-Severity,2,0.5494505494505495,2,0.5494505494505495,216,59.34065934065934,1.0,0.00925925925925926,0.01685185185185185
102,AlanPevec-Dev,high-Severity,1,0.27472527472527475,1,0.27472527472527475,216,59.34065934065934,1.0,0.00462962962962963,0.01685185185185185
12,TerryWilson-Dev,10-week,2,0.5494505494505495,24,6.593406593406594,18,4.945054945054945,0.08333333333333333,0.11111111111111112,0.01685185185185185
164,PetrMatousek-QE,high-Severity,1,0.27472527472527475,1,0.27472527472527475,216,59.34065934065934,1.0,0.00462962962962963,0.01685185185185185
72,IharHrachyshka-QE,high-Severity,1,0.27472527472527475,1,0.27472527472527475,216,59.34065934065934,1.0,0.00462962962962963,0.01685185185185185
135,IanWienand-Dev,high-Severity,1,0.27472527472527475,1,0.27472527472527475,216,59.34065934065934,1.0,0.00462962962962963,0.01685185185185185
340,NirMagnezi-Dev,3-week,6,1.6483516483516485,30,8.241758241758241,44,12.087912087912088,0.20000000000000004,0.13636363636363638,0.01654545454545455
363,JohnSchwarz-Dev,3-week,1,0.27472527472527475,5,1.3736263736263736,44,12.087912087912088,0.2,0.02272727272727273,0.016545454545454547
509,BernardCafarelli-Dev,3-week,1,0.27472527472527475,5,1.3736263736263736,44,12.087912087912088,0.2,0.02272727272727273,0.016545454545454547
399,JonSchlueter-Dev,urgent-Severity,2,0.5494505494505495,3,0.8241758241758242,148,40.65934065934066,0.6666666666666666,0.013513513513513516,0.0163963963963964
576,SlawekKaplonski-Dev,urgent-Severity,10,2.7472527472527473,15,4.1208791208791204,148,40.65934065934066,0.6666666666666667,0.06756756756756757,0.0163963963963964
368,GenadiC-QE,12-week,7,1.9230769230769231,18,4.945054945054945,87,23.9010989010989,0.3888888888888889,0.08045977011494253,0.01627075351213282
471,DanielAlvarezSanchez-Dev,5-week,1,0.27472527472527475,14,3.8461538461538463,16,4.395604395604396,0.07142857142857144,0.0625,0.016249999999999997
451,anilvenkata-Dev,AlexanderStafeyev-QE,4,1.098901098901099,23,6.318681318681318,39,10.714285714285714,0.1739130434782609,0.10256410256410257,0.01623188405797102
494,ArieBregman-QE,2-week,2,0.5494505494505495,18,4.945054945054945,25,6.868131868131869,0.11111111111111112,0.08,0.016177777777777777
361,JakubLibosvar-Dev,2-week,4,1.098901098901099,36,9.89010989010989,25,6.868131868131869,0.11111111111111112,0.16,0.016177777777777777
489,JakubLibosvar-Dev,RoeeAgiman-QE,6,1.6483516483516485,36,9.89010989010989,38,10.43956043956044,0.16666666666666669,0.15789473684210528,0.015964912280701755
547,RoeeAgiman-QE,10-week,3,0.8241758241758242,38,10.43956043956044,18,4.945054945054945,0.07894736842105264,0.16666666666666669,0.015964912280701755
121,JakubLibosvar-Dev,1-week,13,3.571428571428571,36,9.89010989010989,84,23.076923076923077,0.36111111111111105,0.15476190476190474,0.015648148148148147
379,IharHrachyshka-Dev,6-week,4,1.098901098901099,78,21.428571428571427,12,3.296703296703297,0.05128205128205129,0.3333333333333333,0.015555555555555559
168,JakubLibosvar-Dev,YairFried-QE,2,0.5494505494505495,36,9.89010989010989,13,3.571428571428571,0.05555555555555556,0.15384615384615388,0.015555555555555559
129,YairFried-QE,10-week,1,0.27472527472527475,13,3.571428571428571,18,4.945054945054945,0.07692307692307694,0.05555555555555556,0.015555555555555559
427,GenadiC-QE,8-week,1,0.27472527472527475,18,4.945054945054945,13,3.571428571428571,0.05555555555555556,0.07692307692307694,0.015555555555555559
419,GenadiC-QE,11-week,1,0.27472527472527475,18,4.945054945054945,13,3.571428571428571,0.05555555555555556,0.07692307692307694,0.015555555555555559
421,IharHrachyshka-Dev,MariusCornea-QE,1,0.27472527472527475,78,21.428571428571427,3,0.8241758241758242,0.012820512820512822,0.3333333333333333,0.015555555555555559
7,urgent-Severity,9-week,10,2.7472527472527473,148,40.65934065934066,16,4.395604395604396,0.06756756756756757,0.625,0.01537162162162162
350,7-week,2-week-on-qa,2,0.5494505494505495,9,2.4725274725274726,53,14.560439560439562,0.22222222222222224,0.03773584905660377,0.015262054507337525
317,EranKuris-QE,2-week-on-qa,8,2.197802197802198,36,9.89010989010989,53,14.560439560439562,0.22222222222222224,0.1509433962264151,0.015262054507337525
584,SlawekKaplonski-Dev,5-week,1,0.27472527472527475,15,4.1208791208791204,16,4.395604395604396,0.06666666666666668,0.0625,0.015166666666666669
416,AssafMuller-Dev,5-week,3,0.8241758241758242,45,12.362637362637363,16,4.395604395604396,0.06666666666666667,0.1875,0.015166666666666667
240,SridharGaddam-Dev,1-week-on-qa,2,0.5494505494505495,2,0.5494505494505495,243,66.75824175824175,1.0,0.00823045267489712,0.014979423868312759
551,TimRozet-Dev,1-week-on-qa,1,0.27472527472527475,1,0.27472527472527475,243,66.75824175824175,1.0,0.00411522633744856,0.014979423868312759
401,JonSchlueter-Dev,1-week-on-qa,3,0.8241758241758242,3,0.8241758241758242,243,66.75824175824175,1.0,0.012345679012345682,0.014979423868312759
392,YuriObshansky-QE,1-week-on-qa,1,0.27472527472527475,1,0.27472527472527475,243,66.75824175824175,1.0,0.00411522633744856,0.014979423868312759
583,RoeeAgiman-Dev,1-week-on-qa,1,0.27472527472527475,1,0.27472527472527475,243,66.75824175824175,1.0,0.00411522633744856,0.014979423868312759
96,RHOSMaint-Dev,1-week-on-qa,2,0.5494505494505495,2,0.5494505494505495,243,66.75824175824175,1.0,0.00823045267489712,0.014979423868312759
525,CarlosGoncalves-Dev,1-week-on-qa,3,0.8241758241758242,3,0.8241758241758242,243,66.75824175824175,1.0,0.012345679012345682,0.014979423868312759
226,YoniShafrir-Dev,1-week-on-qa,1,0.27472527472527475,1,0.27472527472527475,243,66.75824175824175,1.0,0.00411522633744856,0.014979423868312759
3,BobKukura-Dev,1-week-on-qa,1,0.27472527472527475,1,0.27472527472527475,243,66.75824175824175,1.0,0.00411522633744856,0.014979423868312759
166,PetrMatousek-QE,1-week-on-qa,1,0.27472527472527475,1,0.27472527472527475,243,66.75824175824175,1.0,0.00411522633744856,0.014979423868312759
74,IharHrachyshka-QE,1-week-on-qa,1,0.27472527472527475,1,0.27472527472527475,243,66.75824175824175,1.0,0.00411522633744856,0.014979423868312759
503,MarianKrcmarik-QE,1-week-on-qa,1,0.27472527472527475,1,0.27472527472527475,243,66.75824175824175,1.0,0.00411522633744856,0.014979423868312759
544,ArieBregman-QE,4-week,2,0.5494505494505495,18,4.945054945054945,27,7.417582417582418,0.11111111111111112,0.07407407407407408,0.014979423868312757
485,ArieBregman-QE,high-Severity,16,4.395604395604396,18,4.945054945054945,216,59.34065934065934,0.888888888888889,0.07407407407407408,0.014979423868312757
98,OferBlaut-QE,2-week,4,1.098901098901099,39,10.714285714285714,25,6.868131868131869,0.10256410256410257,0.16,0.014933333333333335
52,IharHrachyshka-Dev,3-week,14,3.8461538461538463,78,21.428571428571427,44,12.087912087912088,0.17948717948717952,0.3181818181818182,0.01484848484848485
144,OferBlaut-QE,3-week,7,1.9230769230769231,39,10.714285714285714,44,12.087912087912088,0.17948717948717952,0.1590909090909091,0.01484848484848485
99,high-Severity,2-week,22,6.043956043956044,216,59.34065934065934,25,6.868131868131869,0.10185185185185185,0.8799999999999999,0.014829629629629627
458,RoeeAgiman-QE,8-week,2,0.5494505494505495,38,10.43956043956044,13,3.571428571428571,0.052631578947368425,0.15384615384615388,0.01473684210526316
172,ToniFreger-QE,3-week,18,4.945054945054945,102,28.021978021978022,44,12.087912087912088,0.17647058823529413,0.4090909090909091,0.014598930481283424
241,ToniFreger-QE,4-week,11,3.021978021978022,102,28.021978021978022,27,7.417582417582418,0.10784313725490195,0.4074074074074074,0.014538852578068263
393,DanielAlvarezSanchez-Dev,EranKuris-QE,2,0.5494505494505495,14,3.8461538461538463,36,9.89010989010989,0.14285714285714288,0.05555555555555556,0.014444444444444444
569,JonSchlueter-Dev,1-week,1,0.27472527472527475,3,0.8241758241758242,84,23.076923076923077,0.3333333333333333,0.011904761904761906,0.014444444444444444
21,RamiVaknin-QE,1-week,1,0.27472527472527475,3,0.8241758241758242,84,23.076923076923077,0.3333333333333333,0.011904761904761906,0.014444444444444444
423,MariusCornea-QE,1-week,1,0.27472527472527475,3,0.8241758241758242,84,23.076923076923077,0.3333333333333333,0.011904761904761906,0.014444444444444444
441,BernardCafarelli-Dev,ToniFreger-QE,2,0.5494505494505495,5,1.3736263736263736,102,28.021978021978022,0.4,0.019607843137254905,0.014274509803921568
578,BrianHaley-Dev,5-week,1,0.27472527472527475,16,4.395604395604396,16,4.395604395604396,0.0625,0.0625,0.014218749999999999
276,BrentEagles-Dev,high-Severity,5,1.3736263736263736,6,1.6483516483516485,216,59.34065934065934,0.8333333333333333,0.023148148148148147,0.014043209876543207
400,JonSchlueter-Dev,12-week,1,0.27472527472527475,3,0.8241758241758242,87,23.9010989010989,0.3333333333333333,0.01149425287356322,0.013946360153256706
264,MariusCornea-QE,12-week,1,0.27472527472527475,3,0.8241758241758242,87,23.9010989010989,0.3333333333333333,0.01149425287356322,0.013946360153256706
292,BrentEagles-Dev,12-week,2,0.5494505494505495,6,1.6483516483516485,87,23.9010989010989,0.3333333333333333,0.02298850574712644,0.013946360153256706
497,BrentEagles-Dev,3-week,1,0.27472527472527475,6,1.6483516483516485,44,12.087912087912088,0.16666666666666666,0.02272727272727273,0.013787878787878788
336,GenadiC-QE,urgent-Severity,10,2.7472527472527473,18,4.945054945054945,148,40.65934065934066,0.5555555555555556,0.06756756756756757,0.013663663663663663
252,NirMagnezi-Dev,high-Severity,24,6.593406593406594,30,8.241758241758241,216,59.34065934065934,0.8000000000000002,0.11111111111111112,0.013481481481481483
248,NirMagnezi-Dev,4-week,3,0.8241758241758242,30,8.241758241758241,27,7.417582417582418,0.10000000000000002,0.11111111111111112,0.013481481481481483
219,AssafMuller-Dev,ToniFreger-QE,17,4.670329670329671,45,12.362637362637363,102,28.021978021978022,0.37777777777777777,0.16666666666666669,0.013481481481481481
334,AssafMuller-Dev,GenadiC-QE,3,0.8241758241758242,45,12.362637362637363,18,4.945054945054945,0.06666666666666667,0.16666666666666669,0.013481481481481481
23,urgent-Severity,1-week,46,12.637362637362637,148,40.65934065934066,84,23.076923076923077,0.3108108108108108,0.5476190476190476,0.013468468468468468
415,DanielAlvarezSanchez-Dev,AlexanderStafeyev-QE,2,0.5494505494505495,14,3.8461538461538463,39,10.714285714285714,0.14285714285714288,0.05128205128205129,0.013333333333333336
394,DanielAlvarezSanchez-Dev,high-Severity,11,3.021978021978022,14,3.8461538461538463,216,59.34065934065934,0.7857142857142857,0.05092592592592592,0.013240740740740739
437,RoeeAgiman-QE,12-week,12,3.296703296703297,38,10.43956043956044,87,23.9010989010989,0.31578947368421056,0.13793103448275862,0.013212341197822143
109,MiguelAngelAjo-Dev,6-week,1,0.27472527472527475,23,6.318681318681318,12,3.296703296703297,0.04347826086956522,0.08333333333333333,0.01318840579710145
236,high-Severity,10-week,14,3.8461538461538463,216,59.34065934065934,18,4.945054945054945,0.06481481481481481,0.7777777777777778,0.013106995884773662
513,BrianHaley-Dev,12-week,5,1.3736263736263736,16,4.395604395604396,87,23.9010989010989,0.3125,0.05747126436781609,0.01307471264367816
258,IharHrachyshka-Dev,EranKuris-QE,10,2.7472527472527473,78,21.428571428571427,36,9.89010989010989,0.12820512820512822,0.2777777777777778,0.012962962962962963
410,BrianHaley-Dev,2-week-on-qa,3,0.8241758241758242,16,4.395604395604396,53,14.560439560439562,0.1875,0.05660377358490566,0.012877358490566036
198,NirMagnezi-QE,2-week-on-qa,3,0.8241758241758242,16,4.395604395604396,53,14.560439560439562,0.1875,0.05660377358490566,0.012877358490566036
40,5-week,2-week-on-qa,3,0.8241758241758242,16,4.395604395604396,53,14.560439560439562,0.1875,0.05660377358490566,0.012877358490566036
65,YairFried-QE,12-week,4,1.098901098901099,13,3.571428571428571,87,23.9010989010989,0.30769230769230776,0.04597701149425288,0.012873563218390807
217,EranKuris-QE,12-week,11,3.021978021978022,36,9.89010989010989,87,23.9010989010989,0.3055555555555555,0.1264367816091954,0.012784163473818645
384,anilvenkata-Dev,12-week,7,1.9230769230769231,23,6.318681318681318,87,23.9010989010989,0.30434782608695654,0.08045977011494253,0.012733633183408295
210,ItzikBrown-QE,1-week-on-qa,11,3.021978021978022,13,3.571428571428571,243,66.75824175824175,0.8461538461538461,0.04526748971193416,0.012674897119341565
288,EranKuris-QE,5-week,2,0.5494505494505495,36,9.89010989010989,16,4.395604395604396,0.05555555555555556,0.125,0.012638888888888889
546,ArieBregman-QE,5-week,1,0.27472527472527475,18,4.945054945054945,16,4.395604395604396,0.05555555555555556,0.0625,0.012638888888888889
472,GenadiC-QE,5-week,1,0.27472527472527475,18,4.945054945054945,16,4.395604395604396,0.05555555555555556,0.0625,0.012638888888888889
537,TerryWilson-Dev,6-week,1,0.27472527472527475,24,6.593406593406594,12,3.296703296703297,0.041666666666666664,0.08333333333333333,0.012638888888888887
253,NirMagnezi-Dev,12-week,9,2.4725274725274726,30,8.241758241758241,87,23.9010989010989,0.30000000000000004,0.10344827586206896,0.012551724137931037
70,AssafMuller-Dev,1-week,13,3.571428571428571,45,12.362637362637363,84,23.076923076923077,0.28888888888888886,0.15476190476190474,0.012518518518518517
230,BrentEagles-Dev,1-week-on-qa,5,1.3736263736263736,6,1.6483516483516485,243,66.75824175824175,0.8333333333333333,0.020576131687242802,0.012482853223593965
470,ArieBregman-QE,1-week-on-qa,15,4.1208791208791204,18,4.945054945054945,243,66.75824175824175,0.8333333333333333,0.06172839506172839,0.012482853223593963
286,AssafMuller-Dev,ItzikBrown-QE,2,0.5494505494505495,45,12.362637362637363,13,3.571428571428571,0.044444444444444446,0.15384615384615388,0.012444444444444445
54,RoeyDekel-QE,urgent-Severity,6,1.6483516483516485,12,3.296703296703297,148,40.65934065934066,0.5,0.04054054054054055,0.012297297297297298
339,urgent-Severity,6-week,6,1.6483516483516485,148,40.65934065934066,12,3.296703296703297,0.04054054054054055,0.5,0.012297297297297298
94,RHOSMaint-Dev,urgent-Severity,1,0.27472527472527475,2,0.5494505494505495,148,40.65934065934066,0.5,0.006756756756756758,0.012297297297297297
539,FedericoRessi-QE,urgent-Severity,1,0.27472527472527475,2,0.5494505494505495,148,40.65934065934066,0.5,0.006756756756756758,0.012297297297297297
114,lpeer-Dev,urgent-Severity,4,1.098901098901099,8,2.197802197802198,148,40.65934065934066,0.5,0.027027027027027032,0.012297297297297297
387,SridharGaddam-Dev,urgent-Severity,1,0.27472527472527475,2,0.5494505494505495,148,40.65934065934066,0.5,0.006756756756756758,0.012297297297297297
431,GenadiC-Dev,urgent-Severity,1,0.27472527472527475,2,0.5494505494505495,148,40.65934065934066,0.5,0.006756756756756758,0.012297297297297297
48,OferBlaut-QE,1-week,11,3.021978021978022,39,10.714285714285714,84,23.076923076923077,0.28205128205128205,0.13095238095238096,0.012222222222222223
222,AssafMuller-Dev,2-week-on-qa,8,2.197802197802198,45,12.362637362637363,53,14.560439560439562,0.17777777777777778,0.1509433962264151,0.01220964360587002
506,anilvenkata-Dev,8-week,1,0.27472527472527475,23,6.318681318681318,13,3.571428571428571,0.04347826086956522,0.07692307692307694,0.012173913043478262
514,anilvenkata-Dev,11-week,1,0.27472527472527475,23,6.318681318681318,13,3.571428571428571,0.04347826086956522,0.07692307692307694,0.012173913043478262
42,JakubLibosvar-Dev,high-Severity,26,7.142857142857142,36,9.89010989010989,216,59.34065934065934,0.7222222222222221,0.12037037037037036,0.012170781893004114
186,JohnSchwarz-Dev,1-week-on-qa,4,1.098901098901099,5,1.3736263736263736,243,66.75824175824175,0.8,0.01646090534979424,0.011983539094650207
515,TerryWilson-Dev,RoeeAgiman-QE,3,0.8241758241758242,24,6.593406593406594,38,10.43956043956044,0.125,0.07894736842105264,0.011973684210526315
143,IharHrachyshka-Dev,OferBlaut-QE,10,2.7472527472527473,78,21.428571428571427,39,10.714285714285714,0.12820512820512822,0.25641025641025644,0.011965811965811967
267,IharHrachyshka-Dev,AlexanderStafeyev-QE,10,2.7472527472527473,78,21.428571428571427,39,10.714285714285714,0.12820512820512822,0.25641025641025644,0.011965811965811967
395,DanielAlvarezSanchez-Dev,12-week,4,1.098901098901099,14,3.8461538461538463,87,23.9010989010989,0.28571428571428575,0.04597701149425288,0.011954022988505748
6,OferBlaut-QE,1-week-on-qa,31,8.516483516483516,39,10.714285714285714,243,66.75824175824175,0.7948717948717949,0.12757201646090535,0.011906721536351169
312,NirMagnezi-Dev,ToniFreger-QE,10,2.7472527472527473,30,8.241758241758241,102,28.021978021978022,0.33333333333333337,0.09803921568627451,0.011895424836601309
148,IharHrachyshka-Dev,ToniFreger-QE,26,7.142857142857142,78,21.428571428571427,102,28.021978021978022,0.3333333333333333,0.2549019607843137,0.011895424836601307
413,DanielAlvarezSanchez-Dev,3-week,2,0.5494505494505495,14,3.8461538461538463,44,12.087912087912088,0.14285714285714288,0.04545454545454546,0.01181818181818182
153,high-Severity,11-week,9,2.4725274725274726,216,59.34065934065934,13,3.571428571428571,0.041666666666666664,0.6923076923076924,0.011666666666666667
64,YairFried-QE,high-Severity,9,2.4725274725274726,13,3.571428571428571,216,59.34065934065934,0.6923076923076924,0.041666666666666664,0.011666666666666667
208,ItzikBrown-QE,high-Severity,9,2.4725274725274726,13,3.571428571428571,216,59.34065934065934,0.6923076923076924,0.041666666666666664,0.011666666666666667
450,RoeeAgiman-QE,urgent-Severity,18,4.945054945054945,38,10.43956043956044,148,40.65934065934066,0.4736842105263158,0.12162162162162163,0.011650071123755336
486,ArieBregman-QE,12-week,5,1.3736263736263736,18,4.945054945054945,87,23.9010989010989,0.2777777777777778,0.05747126436781609,0.011621966794380587
24,urgent-Severity,2-week-on-qa,25,6.868131868131869,148,40.65934065934066,53,14.560439560439562,0.16891891891891894,0.4716981132075472,0.011601223865374809
38,high-Severity,5-week,11,3.021978021978022,216,59.34065934065934,16,4.395604395604396,0.05092592592592592,0.6874999999999999,0.011585648148148145
541,RoeeAgiman-QE,2-week,3,0.8241758241758242,38,10.43956043956044,25,6.868131868131869,0.07894736842105264,0.12,0.011494736842105262
324,NirMagnezi-Dev,2-week-on-qa,5,1.3736263736263736,30,8.241758241758241,53,14.560439560439562,0.16666666666666669,0.09433962264150943,0.011446540880503146
475,6-week,2-week-on-qa,2,0.5494505494505495,12,3.296703296703297,53,14.560439560439562,0.16666666666666666,0.03773584905660377,0.011446540880503144
289,ToniFreger-QE,2-week-on-qa,17,4.670329670329671,102,28.021978021978022,53,14.560439560439562,0.16666666666666669,0.32075471698113206,0.011446540880503144
19,TerryWilson-Dev,2-week-on-qa,4,1.098901098901099,24,6.593406593406594,53,14.560439560439562,0.16666666666666666,0.07547169811320754,0.011446540880503144
25,1-week,2-week-on-qa,14,3.8461538461538463,84,23.076923076923077,53,14.560439560439562,0.16666666666666669,0.2641509433962264,0.011446540880503142
4,OferBlaut-QE,urgent-Severity,18,4.945054945054945,39,10.714285714285714,148,40.65934065934066,0.46153846153846156,0.12162162162162163,0.011351351351351353
51,IharHrachyshka-Dev,urgent-Severity,36,9.89010989010989,78,21.428571428571427,148,40.65934065934066,0.46153846153846156,0.24324324324324326,0.011351351351351353
152,ToniFreger-QE,1-week-on-qa,77,21.153846153846153,102,28.021978021978022,243,66.75824175824175,0.7549019607843137,0.3168724279835391,0.011307996449608651
11,TerryWilson-Dev,urgent-Severity,11,3.021978021978022,24,6.593406593406594,148,40.65934065934066,0.45833333333333326,0.07432432432432433,0.011272522522522524
142,lpeer-Dev,1-week-on-qa,6,1.6483516483516485,8,2.197802197802198,243,66.75824175824175,0.75,0.024691358024691364,0.01123456790123457
9,9-week,1-week-on-qa,12,3.296703296703297,16,4.395604395604396,243,66.75824175824175,0.75,0.04938271604938273,0.01123456790123457
31,RoeyDekel-QE,1-week-on-qa,9,2.4725274725274726,12,3.296703296703297,243,66.75824175824175,0.75,0.03703703703703704,0.011234567901234569
112,6-week,1-week-on-qa,9,2.4725274725274726,12,3.296703296703297,243,66.75824175824175,0.75,0.03703703703703704,0.011234567901234569
341,JakubLibosvar-Dev,GenadiC-QE,2,0.5494505494505495,36,9.89010989010989,18,4.945054945054945,0.05555555555555556,0.11111111111111112,0.011234567901234569
531,JakubLibosvar-Dev,ArieBregman-QE,2,0.5494505494505495,36,9.89010989010989,18,4.945054945054945,0.05555555555555556,0.11111111111111112,0.011234567901234569
250,RoeyDekel-QE,4-week,1,0.27472527472527475,12,3.296703296703297,27,7.417582417582418,0.08333333333333333,0.03703703703703704,0.011234567901234567
456,ArieBregman-Dev,high-Severity,2,0.5494505494505495,3,0.8241758241758242,216,59.34065934065934,0.6666666666666666,0.00925925925925926,0.011234567901234567
216,EranKuris-QE,high-Severity,24,6.593406593406594,36,9.89010989010989,216,59.34065934065934,0.6666666666666667,0.11111111111111112,0.011234567901234567
263,MariusCornea-QE,high-Severity,2,0.5494505494505495,3,0.8241758241758242,216,59.34065934065934,0.6666666666666666,0.00925925925925926,0.011234567901234567
45,RamiVaknin-QE,high-Severity,2,0.5494505494505495,3,0.8241758241758242,216,59.34065934065934,0.6666666666666666,0.00925925925925926,0.011234567901234567
55,urgent-Severity,3-week,20,5.4945054945054945,148,40.65934065934066,44,12.087912087912088,0.13513513513513514,0.4545454545454546,0.011179361179361181
202,ToniFreger-QE,5-week,5,1.3736263736263736,102,28.021978021978022,16,4.395604395604396,0.049019607843137254,0.3125,0.011151960784313724
256,AlexanderStafeyev-QE,1-week-on-qa,29,7.967032967032966,39,10.714285714285714,243,66.75824175824175,0.7435897435897436,0.11934156378600823,0.01113854595336077
89,4-week,1-week-on-qa,20,5.4945054945054945,27,7.417582417582418,243,66.75824175824175,0.7407407407407407,0.08230452674897121,0.011095869532083524
79,MiguelAngelAjo-Dev,1-week-on-qa,17,4.670329670329671,23,6.318681318681318,243,66.75824175824175,0.7391304347826088,0.06995884773662553,0.011071748076578998
157,ToniFreger-QE,1-week,26,7.142857142857142,102,28.021978021978022,84,23.076923076923077,0.2549019607843137,0.3095238095238095,0.011045751633986927
67,high-Severity,12-week,57,15.659340659340659,216,59.34065934065934,87,23.9010989010989,0.2638888888888889,0.6551724137931034,0.011040868454661557
590,SlawekKaplonski-Dev,3-week,2,0.5494505494505495,15,4.1208791208791204,44,12.087912087912088,0.13333333333333336,0.04545454545454546,0.011030303030303033
444,ToniFreger-QE,8-week,4,1.098901098901099,102,28.021978021978022,13,3.571428571428571,0.03921568627450981,0.30769230769230776,0.010980392156862747
349,urgent-Severity,7-week,4,1.098901098901099,148,40.65934065934066,9,2.4725274725274726,0.027027027027027032,0.4444444444444445,0.010930930930930931
167,3-week,2-week-on-qa,7,1.9230769230769231,44,12.087912087912088,53,14.560439560439562,0.1590909090909091,0.1320754716981132,0.010926243567753001
158,MiguelAngelAjo-Dev,12-week,6,1.6483516483516485,23,6.318681318681318,87,23.9010989010989,0.26086956521739135,0.06896551724137931,0.010914542728635682
34,3-week,1-week-on-qa,32,8.791208791208792,44,12.087912087912088,243,66.75824175824175,0.7272727272727274,0.13168724279835392,0.010894126449682007
211,ToniFreger-QE,urgent-Severity,45,12.362637362637363,102,28.021978021978022,148,40.65934065934066,0.44117647058823534,0.30405405405405406,0.010850556438791733
214,lpeer-Dev,1-week,2,0.5494505494505495,8,2.197802197802198,84,23.076923076923077,0.25,0.02380952380952381,0.010833333333333334
18,TerryWilson-Dev,1-week,6,1.6483516483516485,24,6.593406593406594,84,23.076923076923077,0.25,0.07142857142857144,0.010833333333333334
132,MiguelAngelAjo-Dev,urgent-Severity,10,2.7472527472527473,23,6.318681318681318,148,40.65934065934066,0.4347826086956522,0.06756756756756757,0.010693301997649824
449,AssafMuller-Dev,RoeeAgiman-QE,5,1.3736263736263736,45,12.362637362637363,38,10.43956043956044,0.1111111111111111,0.13157894736842105,0.01064327485380117
13,TerryWilson-Dev,1-week-on-qa,17,4.670329670329671,24,6.593406593406594,243,66.75824175824175,0.7083333333333334,0.06995884773662553,0.01061042524005487
269,AlexanderStafeyev-QE,3-week,5,1.3736263736263736,39,10.714285714285714,44,12.087912087912088,0.12820512820512822,0.11363636363636365,0.010606060606060607
161,YairFried-QE,2-week-on-qa,2,0.5494505494505495,13,3.571428571428571,53,14.560439560439562,0.15384615384615388,0.03773584905660377,0.010566037735849057
411,8-week,2-week-on-qa,2,0.5494505494505495,13,3.571428571428571,53,14.560439560439562,0.15384615384615388,0.03773584905660377,0.010566037735849057
360,AlexanderStafeyev-QE,2-week-on-qa,6,1.6483516483516485,39,10.714285714285714,53,14.560439560439562,0.15384615384615388,0.11320754716981132,0.010566037735849057
92,NirMagnezi-QE,high-Severity,10,2.7472527472527473,16,4.395604395604396,216,59.34065934065934,0.625,0.046296296296296294,0.010532407407407405
69,AssafMuller-Dev,high-Severity,28,7.6923076923076925,45,12.362637362637363,216,59.34065934065934,0.6222222222222222,0.12962962962962962,0.01048559670781893
59,NirMagnezi-QE,12-week,4,1.098901098901099,16,4.395604395604396,87,23.9010989010989,0.25,0.04597701149425288,0.010459770114942528
53,IharHrachyshka-Dev,1-week-on-qa,54,14.835164835164836,78,21.428571428571427,243,66.75824175824175,0.6923076923076924,0.22222222222222227,0.010370370370370374
193,high-Severity,8-week,8,2.197802197802198,216,59.34065934065934,13,3.571428571428571,0.03703703703703704,0.6153846153846155,0.010370370370370372
196,OferBlaut-QE,4-week,3,0.8241758241758242,39,10.714285714285714,27,7.417582417582418,0.07692307692307694,0.11111111111111112,0.010370370370370372
445,IharHrachyshka-Dev,7-week,2,0.5494505494505495,78,21.428571428571427,9,2.4725274725274726,0.025641025641025644,0.22222222222222224,0.010370370370370372
254,AlexanderStafeyev-QE,high-Severity,24,6.593406593406594,39,10.714285714285714,216,59.34065934065934,0.6153846153846155,0.11111111111111112,0.010370370370370372
512,BrianHaley-Dev,3-week,2,0.5494505494505495,16,4.395604395604396,44,12.087912087912088,0.125,0.04545454545454546,0.010340909090909092
479,BrianHaley-Dev,1-week-on-qa,11,3.021978021978022,16,4.395604395604396,243,66.75824175824175,0.6874999999999999,0.04526748971193416,0.01029835390946502
83,5-week,1-week-on-qa,11,3.021978021978022,16,4.395604395604396,243,66.75824175824175,0.6874999999999999,0.04526748971193416,0.01029835390946502
162,12-week,2-week-on-qa,13,3.571428571428571,87,23.9010989010989,53,14.560439560439562,0.14942528735632182,0.24528301886792447,0.010262415961830404
377,anilvenkata-Dev,high-Severity,14,3.8461538461538463,23,6.318681318681318,216,59.34065934065934,0.6086956521739131,0.06481481481481481,0.010257648953301127
100,2-week,1-week-on-qa,17,4.670329670329671,25,6.868131868131869,243,66.75824175824175,0.68,0.06995884773662553,0.010186008230452676
290,4-week,2-week-on-qa,4,1.098901098901099,27,7.417582417582418,53,14.560439560439562,0.14814814814814817,0.07547169811320754,0.010174703004891683
33,high-Severity,1-week-on-qa,146,40.10989010989011,216,59.34065934065934,243,66.75824175824175,0.6759259259259259,0.6008230452674898,0.010124980948026215
246,NirMagnezi-Dev,RoeyDekel-QE,1,0.27472527472527475,30,8.241758241758241,12,3.296703296703297,0.03333333333333334,0.08333333333333333,0.010111111111111112
278,NirMagnezi-Dev,EranKuris-QE,3,0.8241758241758242,30,8.241758241758241,36,9.89010989010989,0.10000000000000002,0.08333333333333334,0.010111111111111112
190,StevenHillman-Dev,high-Severity,3,0.8241758241758242,5,1.3736263736263736,216,59.34065934065934,0.6000000000000001,0.01388888888888889,0.01011111111111111
90,AssafMuller-Dev,NirMagnezi-QE,2,0.5494505494505495,45,12.362637362637363,16,4.395604395604396,0.044444444444444446,0.125,0.01011111111111111
508,BernardCafarelli-Dev,high-Severity,3,0.8241758241758242,5,1.3736263736263736,216,59.34065934065934,0.6000000000000001,0.01388888888888889,0.01011111111111111
197,urgent-Severity,4-week,11,3.021978021978022,148,40.65934065934066,27,7.417582417582418,0.07432432432432433,0.4074074074074074,0.01002002002002002
274,ItzikBrown-QE,1-week,3,0.8241758241758242,13,3.571428571428571,84,23.076923076923077,0.2307692307692308,0.03571428571428572,0.010000000000000002
573,SlawekKaplonski-Dev,1-week-on-qa,10,2.7472527472527473,15,4.1208791208791204,243,66.75824175824175,0.6666666666666667,0.041152263374485604,0.009986282578875173
307,ArieBregman-Dev,1-week-on-qa,2,0.5494505494505495,3,0.8241758241758242,243,66.75824175824175,0.6666666666666666,0.00823045267489712,0.009986282578875173
448,7-week,1-week-on-qa,6,1.6483516483516485,9,2.4725274725274726,243,66.75824175824175,0.6666666666666667,0.024691358024691364,0.009986282578875173
47,RamiVaknin-QE,1-week-on-qa,2,0.5494505494505495,3,0.8241758241758242,243,66.75824175824175,0.6666666666666666,0.00823045267489712,0.009986282578875173
88,high-Severity,4-week,16,4.395604395604396,216,59.34065934065934,27,7.417582417582418,0.07407407407407408,0.5925925925925927,0.00998628257887517
257,ToniFreger-QE,10-week,5,1.3736263736263736,102,28.021978021978022,18,4.945054945054945,0.049019607843137254,0.2777777777777778,0.009912854030501088
145,MiguelAngelAjo-Dev,9-week,1,0.27472527472527475,23,6.318681318681318,16,4.395604395604396,0.04347826086956522,0.0625,0.009891304347826087
371,anilvenkata-Dev,9-week,1,0.27472527472527475,23,6.318681318681318,16,4.395604395604396,0.04347826086956522,0.0625,0.009891304347826087
344,BernardCafarelli-Dev,urgent-Severity,2,0.5494505494505495,5,1.3736263736263736,148,40.65934065934066,0.4,0.013513513513513516,0.00983783783783784
175,StevenHillman-Dev,urgent-Severity,2,0.5494505494505495,5,1.3736263736263736,148,40.65934065934066,0.4,0.013513513513513516,0.00983783783783784
8,urgent-Severity,1-week-on-qa,97,26.64835164835165,148,40.65934065934066,243,66.75824175824175,0.6554054054054055,0.39917695473251036,0.009817595373150932
396,DanielAlvarezSanchez-Dev,2-week-on-qa,2,0.5494505494505495,14,3.8461538461538463,53,14.560439560439562,0.14285714285714288,0.03773584905660377,0.00981132075471698
49,1-week,1-week-on-qa,55,15.10989010989011,84,23.076923076923077,243,66.75824175824175,0.6547619047619048,0.2263374485596708,0.009807956104252401
160,IharHrachyshka-Dev,2-week-on-qa,11,3.021978021978022,78,21.428571428571427,53,14.560439560439562,0.14102564102564102,0.20754716981132074,0.009685534591194969
255,AlexanderStafeyev-QE,12-week,9,2.4725274725274726,39,10.714285714285714,87,23.9010989010989,0.23076923076923078,0.10344827586206896,0.009655172413793104
71,AssafMuller-Dev,1-week-on-qa,29,7.967032967032966,45,12.362637362637363,243,66.75824175824175,0.6444444444444444,0.11934156378600823,0.009653406492912665
62,12-week,1-week-on-qa,56,15.384615384615385,87,23.9010989010989,243,66.75824175824175,0.6436781609195402,0.23045267489711938,0.009641928007189821
354,DanielAlvarezSanchez-Dev,1-week-on-qa,9,2.4725274725274726,14,3.8461538461538463,243,66.75824175824175,0.6428571428571429,0.03703703703703704,0.00962962962962963
370,anilvenkata-Dev,urgent-Severity,9,2.4725274725274726,23,6.318681318681318,148,40.65934065934066,0.391304347826087,0.060810810810810814,0.009623971797884842
44,JakubLibosvar-Dev,1-week-on-qa,23,6.318681318681318,36,9.89010989010989,243,66.75824175824175,0.6388888888888888,0.09465020576131687,0.00957018747142204
319,JakubLibosvar-Dev,2-week-on-qa,5,1.3736263736263736,36,9.89010989010989,53,14.560439560439562,0.1388888888888889,0.09433962264150943,0.009538784067085953
77,MiguelAngelAjo-Dev,high-Severity,13,3.571428571428571,23,6.318681318681318,216,59.34065934065934,0.5652173913043478,0.06018518518518518,0.009524959742351046
574,SlawekKaplonski-Dev,ToniFreger-QE,4,1.098901098901099,15,4.1208791208791204,102,28.021978021978022,0.2666666666666667,0.03921568627450981,0.009516339869281049
56,TerryWilson-Dev,NirMagnezi-QE,1,0.27472527472527475,24,6.593406593406594,16,4.395604395604396,0.041666666666666664,0.0625,0.009479166666666665
126,urgent-Severity,8-week,5,1.3736263736263736,148,40.65934065934066,13,3.571428571428571,0.033783783783783786,0.38461538461538464,0.009459459459459462
268,AlexanderStafeyev-QE,urgent-Severity,15,4.1208791208791204,39,10.714285714285714,148,40.65934065934066,0.3846153846153846,0.10135135135135134,0.00945945945945946
150,ToniFreger-QE,high-Severity,57,15.659340659340659,102,28.021978021978022,216,59.34065934065934,0.5588235294117647,0.2638888888888889,0.009417211328976034
447,high-Severity,7-week,5,1.3736263736263736,216,59.34065934065934,9,2.4725274725274726,0.023148148148148147,0.5555555555555556,0.009362139917695472
301,NirMagnezi-Dev,ItzikBrown-QE,1,0.27472527472527475,30,8.241758241758241,13,3.571428571428571,0.03333333333333334,0.07692307692307694,0.009333333333333336
146,IharHrachyshka-Dev,2-week,5,1.3736263736263736,78,21.428571428571427,25,6.868131868131869,0.06410256410256411,0.19999999999999998,0.009333333333333334
91,AssafMuller-Dev,12-week,10,2.7472527472527473,45,12.362637362637363,87,23.9010989010989,0.2222222222222222,0.11494252873563218,0.00929757343550447
130,JakubLibosvar-Dev,12-week,8,2.197802197802198,36,9.89010989010989,87,23.9010989010989,0.22222222222222224,0.09195402298850576,0.00929757343550447
323,AssafMuller-Dev,urgent-Severity,17,4.670329670329671,45,12.362637362637363,148,40.65934065934066,0.37777777777777777,0.11486486486486489,0.009291291291291292
58,NirMagnezi-QE,urgent-Severity,6,1.6483516483516485,16,4.395604395604396,148,40.65934065934066,0.375,0.04054054054054055,0.009222972972972972
66,YairFried-QE,1-week-on-qa,8,2.197802197802198,13,3.571428571428571,243,66.75824175824175,0.6153846153846155,0.03292181069958848,0.009218106995884776
154,11-week,1-week-on-qa,8,2.197802197802198,13,3.571428571428571,243,66.75824175824175,0.6153846153846155,0.03292181069958848,0.009218106995884776
32,high-Severity,3-week,24,6.593406593406594,216,59.34065934065934,44,12.087912087912088,0.11111111111111112,0.5454545454545455,0.009191919191919192
588,SlawekKaplonski-Dev,2-week-on-qa,2,0.5494505494505495,15,4.1208791208791204,53,14.560439560439562,0.13333333333333336,0.03773584905660377,0.009157232704402517
27,TerryWilson-Dev,high-Severity,13,3.571428571428571,24,6.593406593406594,216,59.34065934065934,0.5416666666666666,0.06018518518518518,0.009128086419753084
372,anilvenkata-Dev,1-week-on-qa,14,3.8461538461538463,23,6.318681318681318,243,66.75824175824175,0.6086956521739131,0.057613168724279844,0.009117910180712115
147,NirMagnezi-QE,2-week,1,0.27472527472527475,16,4.395604395604396,25,6.868131868131869,0.0625,0.04,0.009099999999999999
85,IharHrachyshka-Dev,high-Severity,42,11.538461538461538,78,21.428571428571427,216,59.34065934065934,0.5384615384615385,0.19444444444444445,0.009074074074074075
80,OferBlaut-QE,high-Severity,21,5.769230769230769,39,10.714285714285714,216,59.34065934065934,0.5384615384615385,0.09722222222222222,0.009074074074074075
460,RoeeAgiman-QE,2-week-on-qa,5,1.3736263736263736,38,10.43956043956044,53,14.560439560439562,0.13157894736842105,0.09433962264150943,0.00903674280039722
249,NirMagnezi-Dev,1-week-on-qa,18,4.945054945054945,30,8.241758241758241,243,66.75824175824175,0.6000000000000001,0.07407407407407408,0.008987654320987656
586,SlawekKaplonski-Dev,4-week,1,0.27472527472527475,15,4.1208791208791204,27,7.417582417582418,0.06666666666666668,0.03703703703703704,0.008987654320987656
177,StevenHillman-Dev,1-week-on-qa,3,0.8241758241758242,5,1.3736263736263736,243,66.75824175824175,0.6000000000000001,0.012345679012345682,0.008987654320987656
443,BernardCafarelli-Dev,1-week-on-qa,3,0.8241758241758242,5,1.3736263736263736,243,66.75824175824175,0.6000000000000001,0.012345679012345682,0.008987654320987656
314,AssafMuller-Dev,EranKuris-QE,4,1.098901098901099,45,12.362637362637363,36,9.89010989010989,0.08888888888888889,0.11111111111111112,0.008987654320987654
332,AssafMuller-Dev,4-week,3,0.8241758241758242,45,12.362637362637363,27,7.417582417582418,0.06666666666666667,0.11111111111111112,0.008987654320987654
385,anilvenkata-Dev,2-week-on-qa,3,0.8241758241758242,23,6.318681318681318,53,14.560439560439562,0.13043478260869568,0.05660377358490566,0.008958162428219852
140,MiguelAngelAjo-Dev,2-week-on-qa,3,0.8241758241758242,23,6.318681318681318,53,14.560439560439562,0.13043478260869568,0.05660377358490566,0.008958162428219852
39,high-Severity,2-week-on-qa,28,7.6923076923076925,216,59.34065934065934,53,14.560439560439562,0.12962962962962962,0.5283018867924528,0.008902865129280223
118,IharHrachyshka-Dev,1-week,16,4.395604395604396,78,21.428571428571427,84,23.076923076923077,0.20512820512820515,0.1904761904761905,0.00888888888888889
436,RoeeAgiman-QE,high-Severity,20,5.4945054945054945,38,10.43956043956044,216,59.34065934065934,0.5263157894736842,0.09259259259259259,0.008869395711500973
378,anilvenkata-Dev,10-week,1,0.27472527472527475,23,6.318681318681318,18,4.945054945054945,0.04347826086956522,0.05555555555555556,0.008792270531400968
234,MiguelAngelAjo-Dev,10-week,1,0.27472527472527475,23,6.318681318681318,18,4.945054945054945,0.04347826086956522,0.05555555555555556,0.008792270531400968
117,IharHrachyshka-Dev,NirMagnezi-QE,3,0.8241758241758242,78,21.428571428571427,16,4.395604395604396,0.03846153846153847,0.1875,0.00875
194,IharHrachyshka-Dev,9-week,3,0.8241758241758242,78,21.428571428571427,16,4.395604395604396,0.03846153846153847,0.1875,0.00875
218,EranKuris-QE,1-week-on-qa,21,5.769230769230769,36,9.89010989010989,243,66.75824175824175,0.5833333333333333,0.08641975308641976,0.008737997256515775
61,urgent-Severity,12-week,30,8.241758241758241,148,40.65934065934066,87,23.9010989010989,0.2027027027027027,0.3448275862068965,0.008480894687791238
318,JakubLibosvar-Dev,EranKuris-QE,3,0.8241758241758242,36,9.89010989010989,36,9.89010989010989,0.08333333333333334,0.08333333333333334,0.008425925925925927
60,NirMagnezi-QE,1-week-on-qa,9,2.4725274725274726,16,4.395604395604396,243,66.75824175824175,0.5625,0.03703703703703704,0.008425925925925927
474,EranKuris-QE,6-week,1,0.27472527472527475,36,9.89010989010989,12,3.296703296703297,0.02777777777777778,0.08333333333333333,0.008425925925925925
564,RHOSMaint-Dev,high-Severity,1,0.27472527472527475,2,0.5494505494505495,216,59.34065934065934,0.5,0.00462962962962963,0.008425925925925925
595,FedericoRessi-QE,high-Severity,1,0.27472527472527475,2,0.5494505494505495,216,59.34065934065934,0.5,0.00462962962962963,0.008425925925925925
483,GenadiC-Dev,high-Severity,1,0.27472527472527475,2,0.5494505494505495,216,59.34065934065934,0.5,0.00462962962962963,0.008425925925925925
238,SridharGaddam-Dev,high-Severity,1,0.27472527472527475,2,0.5494505494505495,216,59.34065934065934,0.5,0.00462962962962963,0.008425925925925925
106,lpeer-Dev,high-Severity,4,1.098901098901099,8,2.197802197802198,216,59.34065934065934,0.5,0.01851851851851852,0.008425925925925925
29,RoeyDekel-QE,high-Severity,6,1.6483516483516485,12,3.296703296703297,216,59.34065934065934,0.5,0.02777777777777778,0.008425925925925925
507,TerryWilson-Dev,ArieBregman-QE,1,0.27472527472527475,24,6.593406593406594,18,4.945054945054945,0.041666666666666664,0.05555555555555556,0.008425925925925925
111,high-Severity,6-week,6,1.6483516483516485,216,59.34065934065934,12,3.296703296703297,0.02777777777777778,0.5,0.008425925925925925
504,JakubLibosvar-Dev,6-week,1,0.27472527472527475,36,9.89010989010989,12,3.296703296703297,0.02777777777777778,0.08333333333333333,0.008425925925925925
592,BrianHaley-Dev,4-week,1,0.27472527472527475,16,4.395604395604396,27,7.417582417582418,0.0625,0.03703703703703704,0.008425925925925925
459,anilvenkata-Dev,RoeeAgiman-QE,2,0.5494505494505495,23,6.318681318681318,38,10.43956043956044,0.08695652173913045,0.052631578947368425,0.008329519450800916
16,10-week,1-week-on-qa,10,2.7472527472527473,18,4.945054945054945,243,66.75824175824175,0.5555555555555556,0.041152263374485604,0.008321902149062643
331,AssafMuller-Dev,AlexanderStafeyev-QE,4,1.098901098901099,45,12.362637362637363,39,10.714285714285714,0.08888888888888889,0.10256410256410257,0.008296296296296296
139,2-week,2-week-on-qa,3,0.8241758241758242,25,6.868131868131869,53,14.560439560439562,0.12,0.05660377358490566,0.008241509433962263
151,ToniFreger-QE,11-week,3,0.8241758241758242,102,28.021978021978022,13,3.571428571428571,0.029411764705882356,0.2307692307692308,0.008235294117647061
171,ToniFreger-QE,12-week,20,5.4945054945054945,102,28.021978021978022,87,23.9010989010989,0.19607843137254902,0.22988505747126436,0.008203741266621592
259,EranKuris-QE,urgent-Severity,12,3.296703296703297,36,9.89010989010989,148,40.65934065934066,0.33333333333333337,0.0810810810810811,0.0081981981981982
422,MariusCornea-QE,urgent-Severity,1,0.27472527472527475,3,0.8241758241758242,148,40.65934065934066,0.3333333333333333,0.006756756756756758,0.0081981981981982
305,ArieBregman-Dev,urgent-Severity,1,0.27472527472527475,3,0.8241758241758242,148,40.65934065934066,0.3333333333333333,0.006756756756756758,0.0081981981981982
20,RamiVaknin-QE,urgent-Severity,1,0.27472527472527475,3,0.8241758241758242,148,40.65934065934066,0.3333333333333333,0.006756756756756758,0.0081981981981982
281,8-week,1-week-on-qa,7,1.9230769230769231,13,3.571428571428571,243,66.75824175824175,0.5384615384615385,0.028806584362139922,0.008065843621399178
170,JakubLibosvar-Dev,ToniFreger-QE,8,2.197802197802198,36,9.89010989010989,102,28.021978021978022,0.22222222222222224,0.07843137254901962,0.007930283224400871
273,JakubLibosvar-Dev,ItzikBrown-QE,1,0.27472527472527475,36,9.89010989010989,13,3.571428571428571,0.02777777777777778,0.07692307692307694,0.007777777777777779
326,AlexanderStafeyev-QE,1-week,7,1.9230769230769231,39,10.714285714285714,84,23.076923076923077,0.17948717948717952,0.08333333333333334,0.007777777777777778
133,JakubLibosvar-Dev,OferBlaut-QE,3,0.8241758241758242,36,9.89010989010989,39,10.714285714285714,0.08333333333333334,0.07692307692307694,0.007777777777777778
367,IharHrachyshka-Dev,GenadiC-QE,3,0.8241758241758242,78,21.428571428571427,18,4.945054945054945,0.03846153846153847,0.16666666666666669,0.007777777777777778
128,IharHrachyshka-Dev,10-week,3,0.8241758241758242,78,21.428571428571427,18,4.945054945054945,0.03846153846153847,0.16666666666666669,0.007777777777777778
374,anilvenkata-Dev,ToniFreger-QE,5,1.3736263736263736,23,6.318681318681318,102,28.021978021978022,0.2173913043478261,0.049019607843137254,0.0077578857630008526
82,urgent-Severity,5-week,5,1.3736263736263736,148,40.65934065934066,16,4.395604395604396,0.033783783783783786,0.3125,0.00768581081081081
492,10-week,2-week-on-qa,2,0.5494505494505495,18,4.945054945054945,53,14.560439560439562,0.11111111111111112,0.03773584905660377,0.0076310272536687625
75,high-Severity,1-week,38,10.43956043956044,216,59.34065934065934,84,23.076923076923077,0.17592592592592593,0.4523809523809524,0.007623456790123457
406,NirMagnezi-Dev,9-week,1,0.27472527472527475,30,8.241758241758241,16,4.395604395604396,0.03333333333333334,0.0625,0.007583333333333334
526,NirMagnezi-Dev,5-week,1,0.27472527472527475,30,8.241758241758241,16,4.395604395604396,0.03333333333333334,0.0625,0.007583333333333334
188,urgent-Severity,11-week,4,1.098901098901099,148,40.65934065934066,13,3.571428571428571,0.027027027027027032,0.30769230769230776,0.00756756756756757
115,YairFried-QE,urgent-Severity,4,1.098901098901099,13,3.571428571428571,148,40.65934065934066,0.30769230769230776,0.027027027027027032,0.00756756756756757
282,ItzikBrown-QE,urgent-Severity,4,1.098901098901099,13,3.571428571428571,148,40.65934065934066,0.30769230769230776,0.027027027027027032,0.00756756756756757
375,anilvenkata-Dev,1-week,4,1.098901098901099,23,6.318681318681318,84,23.076923076923077,0.1739130434782609,0.04761904761904762,0.007536231884057973
159,IharHrachyshka-Dev,12-week,14,3.8461538461538463,78,21.428571428571427,87,23.9010989010989,0.17948717948717952,0.16091954022988506,0.007509578544061302
104,OferBlaut-QE,12-week,7,1.9230769230769231,39,10.714285714285714,87,23.9010989010989,0.17948717948717952,0.08045977011494253,0.007509578544061302
330,AlexanderChuzhoy-QE,1-week-on-qa,1,0.27472527472527475,2,0.5494505494505495,243,66.75824175824175,0.5,0.00411522633744856,0.0074897119341563794
243,AsafHirshberg-QE,1-week-on-qa,1,0.27472527472527475,2,0.5494505494505495,243,66.75824175824175,0.5,0.00411522633744856,0.0074897119341563794
597,FedericoRessi-QE,1-week-on-qa,1,0.27472527472527475,2,0.5494505494505495,243,66.75824175824175,0.5,0.00411522633744856,0.0074897119341563794
180,LeonidNatapov-QE,1-week-on-qa,1,0.27472527472527475,2,0.5494505494505495,243,66.75824175824175,0.5,0.00411522633744856,0.0074897119341563794
433,GenadiC-Dev,1-week-on-qa,1,0.27472527472527475,2,0.5494505494505495,243,66.75824175824175,0.5,0.00411522633744856,0.0074897119341563794
272,MikeKolesnik-Dev,1-week-on-qa,1,0.27472527472527475,2,0.5494505494505495,243,66.75824175824175,0.5,0.00411522633744856,0.0074897119341563794
386,GenadiC-QE,high-Severity,8,2.197802197802198,18,4.945054945054945,216,59.34065934065934,0.4444444444444445,0.03703703703703704,0.007489711934156379
424,GenadiC-QE,4-week,1,0.27472527472527475,18,4.945054945054945,27,7.417582417582418,0.05555555555555556,0.03703703703703704,0.007489711934156379
169,JakubLibosvar-Dev,4-week,2,0.5494505494505495,36,9.89010989010989,27,7.417582417582418,0.05555555555555556,0.07407407407407408,0.007489711934156379
212,TerryWilson-Dev,ToniFreger-QE,5,1.3736263736263736,24,6.593406593406594,102,28.021978021978022,0.20833333333333331,0.049019607843137254,0.007434640522875817
266,EranKuris-QE,1-week,6,1.6483516483516485,36,9.89010989010989,84,23.076923076923077,0.16666666666666669,0.07142857142857144,0.007222222222222223
229,BrentEagles-Dev,1-week,1,0.27472527472527475,6,1.6483516483516485,84,23.076923076923077,0.16666666666666666,0.011904761904761906,0.007222222222222222
488,anilvenkata-Dev,3-week,2,0.5494505494505495,23,6.318681318681318,44,12.087912087912088,0.08695652173913045,0.04545454545454546,0.007193675889328065
149,IharHrachyshka-Dev,11-week,2,0.5494505494505495,78,21.428571428571427,13,3.571428571428571,0.025641025641025644,0.15384615384615388,0.00717948717948718
232,IharHrachyshka-Dev,ItzikBrown-QE,2,0.5494505494505495,78,21.428571428571427,13,3.571428571428571,0.025641025641025644,0.15384615384615388,0.00717948717948718
309,JohnSchwarz-Dev,ToniFreger-QE,1,0.27472527472527475,5,1.3736263736263736,102,28.021978021978022,0.2,0.009803921568627453,0.007137254901960784
200,StevenHillman-Dev,ToniFreger-QE,1,0.27472527472527475,5,1.3736263736263736,102,28.021978021978022,0.2,0.009803921568627453,0.007137254901960784
313,ToniFreger-QE,2-week,5,1.3736263736263736,102,28.021978021978022,25,6.868131868131869,0.049019607843137254,0.19999999999999998,0.007137254901960784
587,RoeeAgiman-QE,4-week,2,0.5494505494505495,38,10.43956043956044,27,7.417582417582418,0.052631578947368425,0.07407407407407408,0.00709551656920078
138,OferBlaut-QE,2-week-on-qa,4,1.098901098901099,39,10.714285714285714,53,14.560439560439562,0.10256410256410257,0.07547169811320754,0.007044025157232705
57,TerryWilson-Dev,12-week,4,1.098901098901099,24,6.593406593406594,87,23.9010989010989,0.16666666666666666,0.04597701149425288,0.006973180076628353
333,AlexanderStafeyev-QE,4-week,2,0.5494505494505495,39,10.714285714285714,27,7.417582417582418,0.05128205128205129,0.07407407407407408,0.006913580246913581
43,JakubLibosvar-Dev,3-week,3,0.8241758241758242,36,9.89010989010989,44,12.087912087912088,0.08333333333333334,0.06818181818181819,0.006893939393939395
316,EranKuris-QE,3-week,3,0.8241758241758242,36,9.89010989010989,44,12.087912087912088,0.08333333333333334,0.06818181818181819,0.006893939393939395
181,JakubLibosvar-Dev,urgent-Severity,10,2.7472527472527473,36,9.89010989010989,148,40.65934065934066,0.2777777777777778,0.06756756756756757,0.006831831831831832
498,NirMagnezi-Dev,ArieBregman-QE,1,0.27472527472527475,30,8.241758241758241,18,4.945054945054945,0.03333333333333334,0.05555555555555556,0.006740740740740742
405,NirMagnezi-Dev,GenadiC-QE,1,0.27472527472527475,30,8.241758241758241,18,4.945054945054945,0.03333333333333334,0.05555555555555556,0.006740740740740742
335,AssafMuller-Dev,6-week,1,0.27472527472527475,45,12.362637362637363,12,3.296703296703297,0.022222222222222223,0.08333333333333333,0.006740740740740741
438,RoeeAgiman-QE,1-week-on-qa,17,4.670329670329671,38,10.43956043956044,243,66.75824175824175,0.4473684210526316,0.06995884773662553,0.006701321204245181
221,ToniFreger-QE,9-week,3,0.8241758241758242,102,28.021978021978022,16,4.395604395604396,0.029411764705882356,0.1875,0.006691176470588235
499,DanielAlvarezSanchez-Dev,OferBlaut-QE,1,0.27472527472527475,14,3.8461538461538463,39,10.714285714285714,0.07142857142857144,0.025641025641025644,0.006666666666666668
182,YairFried-QE,1-week,2,0.5494505494505495,13,3.571428571428571,84,23.076923076923077,0.15384615384615388,0.02380952380952381,0.006666666666666668
209,ItzikBrown-QE,12-week,2,0.5494505494505495,13,3.571428571428571,87,23.9010989010989,0.15384615384615388,0.02298850574712644,0.006436781609195403
439,NirMagnezi-Dev,RoeeAgiman-QE,2,0.5494505494505495,30,8.241758241758241,38,10.43956043956044,0.06666666666666668,0.052631578947368425,0.006385964912280703
414,ItzikBrown-QE,3-week,1,0.27472527472527475,13,3.571428571428571,44,12.087912087912088,0.07692307692307694,0.02272727272727273,0.006363636363636366
407,BrianHaley-Dev,EranKuris-QE,1,0.27472527472527475,16,4.395604395604396,36,9.89010989010989,0.0625,0.02777777777777778,0.006319444444444444
545,JakubLibosvar-Dev,5-week,1,0.27472527472527475,36,9.89010989010989,16,4.395604395604396,0.02777777777777778,0.0625,0.006319444444444444
195,high-Severity,9-week,6,1.6483516483516485,216,59.34065934065934,16,4.395604395604396,0.02777777777777778,0.375,0.006319444444444444
589,SlawekKaplonski-Dev,AlexanderStafeyev-QE,1,0.27472527472527475,15,4.1208791208791204,39,10.714285714285714,0.06666666666666668,0.025641025641025644,0.006222222222222224
465,AssafMuller-Dev,8-week,1,0.27472527472527475,45,12.362637362637363,13,3.571428571428571,0.022222222222222223,0.07692307692307694,0.006222222222222223
518,RoeeAgiman-QE,9-week,1,0.27472527472527475,38,10.43956043956044,16,4.395604395604396,0.026315789473684213,0.0625,0.005986842105263158
585,RoeeAgiman-QE,5-week,1,0.27472527472527475,38,10.43956043956044,16,4.395604395604396,0.026315789473684213,0.0625,0.005986842105263158
496,BrentEagles-Dev,ToniFreger-QE,1,0.27472527472527475,6,1.6483516483516485,102,28.021978021978022,0.16666666666666666,0.009803921568627453,0.005947712418300654
505,ToniFreger-QE,6-week,2,0.5494505494505495,102,28.021978021978022,12,3.296703296703297,0.019607843137254905,0.16666666666666666,0.005947712418300654
81,OferBlaut-QE,5-week,1,0.27472527472527475,39,10.714285714285714,16,4.395604395604396,0.025641025641025644,0.0625,0.005833333333333334
287,IharHrachyshka-Dev,5-week,2,0.5494505494505495,78,21.428571428571427,16,4.395604395604396,0.025641025641025644,0.125,0.005833333333333334
328,NirMagnezi-Dev,1-week,4,1.098901098901099,30,8.241758241758241,84,23.076923076923077,0.13333333333333336,0.04761904761904762,0.005777777777777779
37,RoeyDekel-QE,2-week-on-qa,1,0.27472527472527475,12,3.296703296703297,53,14.560439560439562,0.08333333333333333,0.018867924528301886,0.005723270440251572
553,SlawekKaplonski-Dev,high-Severity,5,1.3736263736263736,15,4.1208791208791204,216,59.34065934065934,0.33333333333333337,0.023148148148148147,0.005617283950617284
536,TerryWilson-Dev,4-week,1,0.27472527472527475,24,6.593406593406594,27,7.417582417582418,0.041666666666666664,0.03703703703703704,0.0056172839506172835
403,JonSchlueter-Dev,high-Severity,1,0.27472527472527475,3,0.8241758241758242,216,59.34065934065934,0.3333333333333333,0.00462962962962963,0.0056172839506172835
575,SlawekKaplonski-Dev,12-week,2,0.5494505494505495,15,4.1208791208791204,87,23.9010989010989,0.13333333333333336,0.02298850574712644,0.005578544061302683
315,AssafMuller-Dev,3-week,3,0.8241758241758242,45,12.362637362637363,44,12.087912087912088,0.06666666666666667,0.06818181818181819,0.0055151515151515155
15,urgent-Severity,10-week,4,1.098901098901099,148,40.65934065934066,18,4.945054945054945,0.027027027027027032,0.22222222222222224,0.005465465465465466
511,BrianHaley-Dev,1-week,2,0.5494505494505495,16,4.395604395604396,84,23.076923076923077,0.125,0.02380952380952381,0.005416666666666667
420,11-week,2-week-on-qa,1,0.27472527472527475,13,3.571428571428571,53,14.560439560439562,0.07692307692307694,0.018867924528301886,0.005283018867924529
352,DanielAlvarezSanchez-Dev,urgent-Severity,3,0.8241758241758242,14,3.8461538461538463,148,40.65934065934066,0.2142857142857143,0.020270270270270275,0.00527027027027027
14,OferBlaut-QE,10-week,1,0.27472527472527475,39,10.714285714285714,18,4.945054945054945,0.025641025641025644,0.05555555555555556,0.005185185185185186
542,IharHrachyshka-Dev,ArieBregman-QE,2,0.5494505494505495,78,21.428571428571427,18,4.945054945054945,0.025641025641025644,0.11111111111111112,0.005185185185185186
556,AlexanderStafeyev-QE,10-week,1,0.27472527472527475,39,10.714285714285714,18,4.945054945054945,0.025641025641025644,0.05555555555555556,0.005185185185185186
351,DanielAlvarezSanchez-Dev,ToniFreger-QE,2,0.5494505494505495,14,3.8461538461538463,102,28.021978021978022,0.14285714285714288,0.019607843137254905,0.005098039215686275
358,HynekMlnarik-Dev,1-week-on-qa,1,0.27472527472527475,3,0.8241758241758242,243,66.75824175824175,0.3333333333333333,0.00411522633744856,0.004993141289437586
265,MariusCornea-QE,1-week-on-qa,1,0.27472527472527475,3,0.8241758241758242,243,66.75824175824175,0.3333333333333333,0.00411522633744856,0.004993141289437586
247,NirMagnezi-Dev,urgent-Severity,6,1.6483516483516485,30,8.241758241758241,148,40.65934065934066,0.20000000000000004,0.04054054054054055,0.00491891891891892
429,GenadiC-QE,1-week,2,0.5494505494505495,18,4.945054945054945,84,23.076923076923077,0.11111111111111112,0.02380952380952381,0.004814814814814815
495,ArieBregman-QE,3-week,1,0.27472527472527475,18,4.945054945054945,44,12.087912087912088,0.05555555555555556,0.02272727272727273,0.004595959595959597
342,GenadiC-QE,3-week,1,0.27472527472527475,18,4.945054945054945,44,12.087912087912088,0.05555555555555556,0.02272727272727273,0.004595959595959597
491,AssafMuller-Dev,10-week,1,0.27472527472527475,45,12.362637362637363,18,4.945054945054945,0.022222222222222223,0.05555555555555556,0.004493827160493827
213,lpeer-Dev,ToniFreger-QE,1,0.27472527472527475,8,2.197802197802198,102,28.021978021978022,0.125,0.009803921568627453,0.004460784313725491
534,RoeeAgiman-QE,3-week,2,0.5494505494505495,38,10.43956043956044,44,12.087912087912088,0.052631578947368425,0.04545454545454546,0.004354066985645933
477,BrianHaley-Dev,high-Severity,4,1.098901098901099,16,4.395604395604396,216,59.34065934065934,0.25,0.01851851851851852,0.004212962962962963
338,GenadiC-QE,1-week-on-qa,5,1.3736263736263736,18,4.945054945054945,243,66.75824175824175,0.2777777777777778,0.020576131687242802,0.004160951074531322
228,BrentEagles-Dev,urgent-Severity,1,0.27472527472527475,6,1.6483516483516485,148,40.65934065934066,0.16666666666666666,0.006756756756756758,0.0040990990990991
487,anilvenkata-Dev,OferBlaut-QE,1,0.27472527472527475,23,6.318681318681318,39,10.714285714285714,0.04347826086956522,0.025641025641025644,0.004057971014492755
50,IharHrachyshka-Dev,RoeyDekel-QE,1,0.27472527472527475,78,21.428571428571427,12,3.296703296703297,0.012820512820512822,0.08333333333333333,0.0038888888888888896
285,AlexanderStafeyev-QE,2-week,1,0.27472527472527475,39,10.714285714285714,25,6.868131868131869,0.025641025641025644,0.04,0.0037333333333333337
191,IharHrachyshka-Dev,8-week,1,0.27472527472527475,78,21.428571428571427,13,3.571428571428571,0.012820512820512822,0.07692307692307694,0.00358974358974359
321,JohnSchwarz-Dev,high-Severity,1,0.27472527472527475,5,1.3736263736263736,216,59.34065934065934,0.2,0.00462962962962963,0.0033703703703703704
156,AssafMuller-Dev,2-week,1,0.27472527472527475,45,12.362637362637363,25,6.868131868131869,0.022222222222222223,0.04,0.0032355555555555553
308,NirMagnezi-Dev,OferBlaut-QE,1,0.27472527472527475,30,8.241758241758241,39,10.714285714285714,0.03333333333333334,0.025641025641025644,0.003111111111111112
173,MiguelAngelAjo-Dev,ToniFreger-QE,2,0.5494505494505495,23,6.318681318681318,102,28.021978021978022,0.08695652173913045,0.019607843137254905,0.0031031543052003415
428,DanielAlvarezSanchez-Dev,1-week,1,0.27472527472527475,14,3.8461538461538463,84,23.076923076923077,0.07142857142857144,0.011904761904761906,0.0030952380952380953
261,urgent-Severity,2-week,3,0.8241758241758242,148,40.65934065934066,25,6.868131868131869,0.020270270270270275,0.12,0.0029513513513513517
594,SlawekKaplonski-Dev,1-week,1,0.27472527472527475,15,4.1208791208791204,84,23.076923076923077,0.06666666666666668,0.011904761904761906,0.0028888888888888896
468,ArieBregman-QE,urgent-Severity,2,0.5494505494505495,18,4.945054945054945,148,40.65934065934066,0.11111111111111112,0.013513513513513516,0.002732732732732733
359,JakubLibosvar-Dev,AlexanderStafeyev-QE,1,0.27472527472527475,36,9.89010989010989,39,10.714285714285714,0.02777777777777778,0.025641025641025644,0.002592592592592593
481,IharHrachyshka-Dev,RoeeAgiman-QE,2,0.5494505494505495,78,21.428571428571427,38,10.43956043956044,0.025641025641025644,0.052631578947368425,0.002456140350877193
543,ArieBregman-QE,1-week,1,0.27472527472527475,18,4.945054945054945,84,23.076923076923077,0.05555555555555556,0.011904761904761906,0.0024074074074074076
490,RoeeAgiman-QE,1-week,2,0.5494505494505495,38,10.43956043956044,84,23.076923076923077,0.052631578947368425,0.02380952380952381,0.002280701754385965
155,AssafMuller-Dev,OferBlaut-QE,1,0.27472527472527475,45,12.362637362637363,39,10.714285714285714,0.022222222222222223,0.025641025641025644,0.002074074074074074
